/mnt/gpfs/work/plgrid/groups/plggatlaslhc/igrabows/2016-pPb-HION6-R21/data16_hip8TeV.00313333.physics_Main.deriv.DAOD_HION6.r11416_p3868_p4315/DAOD_HION6.23148074._000001.pool.root.1
/mnt/gpfs/work/plgrid/groups/plggatlaslhc/igrabows/2016-pPb-HION6-R21/data16_hip8TeV.00313333.physics_Main.deriv.DAOD_HION6.r11416_p3868_p4315/DAOD_HION6.23148074._000002.pool.root.1
/mnt/gpfs/work/plgrid/groups/plggatlaslhc/igrabows/2016-pPb-HION6-R21/data16_hip8TeV.00313333.physics_Main.deriv.DAOD_HION6.r11416_p3868_p4315/DAOD_HION6.23148074._000003.pool.root.1
/mnt/gpfs/work/plgrid/groups/plggatlaslhc/igrabows/2016-pPb-HION6-R21/data16_hip8TeV.00313333.physics_Main.deriv.DAOD_HION6.r11416_p3868_p4315/DAOD_HION6.23148074._000004.pool.root.1
/mnt/gpfs/work/plgrid/groups/plggatlaslhc/igrabows/2016-pPb-HION6-R21/data16_hip8TeV.00313333.physics_Main.deriv.DAOD_HION6.r11416_p3868_p4315/DAOD_HION6.23148074._000005.pool.root.1
/mnt/gpfs/work/plgrid/groups/plggatlaslhc/igrabows/2016-pPb-HION6-R21/data16_hip8TeV.00313333.physics_Main.deriv.DAOD_HION6.r11416_p3868_p4315/DAOD_HION6.23148074._000006.pool.root.1
/mnt/gpfs/work/plgrid/groups/plggatlaslhc/igrabows/2016-pPb-HION6-R21/data16_hip8TeV.00313333.physics_Main.deriv.DAOD_HION6.r11416_p3868_p4315/DAOD_HION6.23148074._000007.pool.root.1
/mnt/gpfs/work/plgrid/groups/plggatlaslhc/igrabows/2016-pPb-HION6-R21/data16_hip8TeV.00313333.physics_Main.deriv.DAOD_HION6.r11416_p3868_p4315/DAOD_HION6.23148074._000008.pool.root.1
/mnt/gpfs/work/plgrid/groups/plggatlaslhc/igrabows/2016-pPb-HION6-R21/data16_hip8TeV.00313333.physics_Main.deriv.DAOD_HION6.r11416_p3868_p4315/DAOD_HION6.23148074._000009.pool.root.1
/mnt/gpfs/work/plgrid/groups/plggatlaslhc/igrabows/2016-pPb-HION6-R21/data16_hip8TeV.00313333.physics_Main.deriv.DAOD_HION6.r11416_p3868_p4315/DAOD_HION6.23148074._000010.pool.root.1
/mnt/gpfs/work/plgrid/groups/plggatlaslhc/igrabows/2016-pPb-HION6-R21/data16_hip8TeV.00313333.physics_Main.deriv.DAOD_HION6.r11416_p3868_p4315/DAOD_HION6.23148074._000858.pool.root.1
/mnt/gpfs/work/plgrid/groups/plggatlaslhc/igrabows/2016-pPb-HION6-R21/data16_hip8TeV.00313333.physics_Main.deriv.DAOD_HION6.r11416_p3868_p4315/DAOD_HION6.23148074._001136.pool.root.1
/mnt/gpfs/work/plgrid/groups/plggatlaslhc/igrabows/2016-pPb-HION6-R21/data16_hip8TeV.00313333.physics_Main.deriv.DAOD_HION6.r11416_p3868_p4315/DAOD_HION6.23148074._001187.pool.root.1
/mnt/gpfs/work/plgrid/groups/plggatlaslhc/igrabows/2016-pPb-HION6-R21/data16_hip8TeV.00313333.physics_Main.deriv.DAOD_HION6.r11416_p3868_p4315/DAOD_HION6.23148074._001188.pool.root.1
/mnt/gpfs/work/plgrid/groups/plggatlaslhc/igrabows/2016-pPb-HION6-R21/data16_hip8TeV.00313333.physics_Main.deriv.DAOD_HION6.r11416_p3868_p4315/DAOD_HION6.23148074._001189.pool.root.1
/mnt/gpfs/work/plgrid/groups/plggatlaslhc/igrabows/2016-pPb-HION6-R21/data16_hip8TeV.00313333.physics_Main.deriv.DAOD_HION6.r11416_p3868_p4315/DAOD_HION6.23148074._001190.pool.root.1
/mnt/gpfs/work/plgrid/groups/plggatlaslhc/igrabows/2016-pPb-HION6-R21/data16_hip8TeV.00313333.physics_Main.deriv.DAOD_HION6.r11416_p3868_p4315/DAOD_HION6.23148074._001191.pool.root.1
/mnt/gpfs/work/plgrid/groups/plggatlaslhc/igrabows/2016-pPb-HION6-R21/data16_hip8TeV.00313333.physics_Main.deriv.DAOD_HION6.r11416_p3868_p4315/DAOD_HION6.23148074._001192.pool.root.1
/mnt/gpfs/work/plgrid/groups/plggatlaslhc/igrabows/2016-pPb-HION6-R21/data16_hip8TeV.00313333.physics_Main.deriv.DAOD_HION6.r11416_p3868_p4315/DAOD_HION6.23148074._001193.pool.root.1
/mnt/gpfs/work/plgrid/groups/plggatlaslhc/igrabows/2016-pPb-HION6-R21/data16_hip8TeV.00313333.physics_Main.deriv.DAOD_HION6.r11416_p3868_p4315/DAOD_HION6.23148074._001194.pool.root.1
/mnt/gpfs/work/plgrid/groups/plggatlaslhc/igrabows/2016-pPb-HION6-R21/data16_hip8TeV.00313333.physics_Main.deriv.DAOD_HION6.r11416_p3868_p4315/DAOD_HION6.23148074._001195.pool.root.1
/mnt/gpfs/work/plgrid/groups/plggatlaslhc/igrabows/2016-pPb-HION6-R21/data16_hip8TeV.00313333.physics_Main.deriv.DAOD_HION6.r11416_p3868_p4315/DAOD_HION6.23148074._001196.pool.root.1
/mnt/gpfs/work/plgrid/groups/plggatlaslhc/igrabows/2016-pPb-HION6-R21/data16_hip8TeV.00313333.physics_Main.deriv.DAOD_HION6.r11416_p3868_p4315/DAOD_HION6.23148074._001197.pool.root.1
/mnt/gpfs/work/plgrid/groups/plggatlaslhc/igrabows/2016-pPb-HION6-R21/data16_hip8TeV.00313333.physics_Main.deriv.DAOD_HION6.r11416_p3868_p4315/DAOD_HION6.23148074._001198.pool.root.1
/mnt/gpfs/work/plgrid/groups/plggatlaslhc/igrabows/2016-pPb-HION6-R21/data16_hip8TeV.00313333.physics_Main.deriv.DAOD_HION6.r11416_p3868_p4315/DAOD_HION6.23148074._001199.pool.root.1
/mnt/gpfs/work/plgrid/groups/plggatlaslhc/igrabows/2016-pPb-HION6-R21/data16_hip8TeV.00313333.physics_Main.deriv.DAOD_HION6.r11416_p3868_p4315/DAOD_HION6.23148074._001200.pool.root.1
/mnt/gpfs/work/plgrid/groups/plggatlaslhc/igrabows/2016-pPb-HION6-R21/data16_hip8TeV.00313333.physics_Main.deriv.DAOD_HION6.r11416_p3868_p4315/DAOD_HION6.23148074._001201.pool.root.1
/mnt/gpfs/work/plgrid/groups/plggatlaslhc/igrabows/2016-pPb-HION6-R21/data16_hip8TeV.00313333.physics_Main.deriv.DAOD_HION6.r11416_p3868_p4315/DAOD_HION6.23148074._001202.pool.root.1
/mnt/gpfs/work/plgrid/groups/plggatlaslhc/igrabows/2016-pPb-HION6-R21/data16_hip8TeV.00313333.physics_Main.deriv.DAOD_HION6.r11416_p3868_p4315/DAOD_HION6.23148074._001203.pool.root.1
/mnt/gpfs/work/plgrid/groups/plggatlaslhc/igrabows/2016-pPb-HION6-R21/data16_hip8TeV.00313333.physics_Main.deriv.DAOD_HION6.r11416_p3868_p4315/DAOD_HION6.23148074._001204.pool.root.1
/mnt/gpfs/work/plgrid/groups/plggatlaslhc/igrabows/2016-pPb-HION6-R21/data16_hip8TeV.00313333.physics_Main.deriv.DAOD_HION6.r11416_p3868_p4315/DAOD_HION6.23148074._001205.pool.root.1
/mnt/gpfs/work/plgrid/groups/plggatlaslhc/igrabows/2016-pPb-HION6-R21/data16_hip8TeV.00313333.physics_Main.deriv.DAOD_HION6.r11416_p3868_p4315/DAOD_HION6.23148074._001206.pool.root.1
/mnt/gpfs/work/plgrid/groups/plggatlaslhc/igrabows/2016-pPb-HION6-R21/data16_hip8TeV.00313333.physics_Main.deriv.DAOD_HION6.r11416_p3868_p4315/DAOD_HION6.23148074._001207.pool.root.1
/mnt/gpfs/work/plgrid/groups/plggatlaslhc/igrabows/2016-pPb-HION6-R21/data16_hip8TeV.00313333.physics_Main.deriv.DAOD_HION6.r11416_p3868_p4315/DAOD_HION6.23148074._001208.pool.root.1
/mnt/gpfs/work/plgrid/groups/plggatlaslhc/igrabows/2016-pPb-HION6-R21/data16_hip8TeV.00313333.physics_Main.deriv.DAOD_HION6.r11416_p3868_p4315/DAOD_HION6.23148074._001209.pool.root.1
/mnt/gpfs/work/plgrid/groups/plggatlaslhc/igrabows/2016-pPb-HION6-R21/data16_hip8TeV.00313333.physics_Main.deriv.DAOD_HION6.r11416_p3868_p4315/DAOD_HION6.23148074._001210.pool.root.1
/mnt/gpfs/work/plgrid/groups/plggatlaslhc/igrabows/2016-pPb-HION6-R21/data16_hip8TeV.00313333.physics_Main.deriv.DAOD_HION6.r11416_p3868_p4315/DAOD_HION6.23148074._001211.pool.root.1
/mnt/gpfs/work/plgrid/groups/plggatlaslhc/igrabows/2016-pPb-HION6-R21/data16_hip8TeV.00313333.physics_Main.deriv.DAOD_HION6.r11416_p3868_p4315/DAOD_HION6.23148074._001212.pool.root.1
/mnt/gpfs/work/plgrid/groups/plggatlaslhc/igrabows/2016-pPb-HION6-R21/data16_hip8TeV.00313333.physics_Main.deriv.DAOD_HION6.r11416_p3868_p4315/DAOD_HION6.23148074._001213.pool.root.1
/mnt/gpfs/work/plgrid/groups/plggatlaslhc/igrabows/2016-pPb-HION6-R21/data16_hip8TeV.00313333.physics_Main.deriv.DAOD_HION6.r11416_p3868_p4315/DAOD_HION6.23148074._001214.pool.root.1
/mnt/gpfs/work/plgrid/groups/plggatlaslhc/igrabows/2016-pPb-HION6-R21/data16_hip8TeV.00313333.physics_Main.deriv.DAOD_HION6.r11416_p3868_p4315/DAOD_HION6.23148074._001215.pool.root.1
/mnt/gpfs/work/plgrid/groups/plggatlaslhc/igrabows/2016-pPb-HION6-R21/data16_hip8TeV.00313333.physics_Main.deriv.DAOD_HION6.r11416_p3868_p4315/DAOD_HION6.23148074._001216.pool.root.1
/mnt/gpfs/work/plgrid/groups/plggatlaslhc/igrabows/2016-pPb-HION6-R21/data16_hip8TeV.00313333.physics_Main.deriv.DAOD_HION6.r11416_p3868_p4315/DAOD_HION6.23148074._001217.pool.root.1
/mnt/gpfs/work/plgrid/groups/plggatlaslhc/igrabows/2016-pPb-HION6-R21/data16_hip8TeV.00313333.physics_Main.deriv.DAOD_HION6.r11416_p3868_p4315/DAOD_HION6.23148074._001218.pool.root.1
/mnt/gpfs/work/plgrid/groups/plggatlaslhc/igrabows/2016-pPb-HION6-R21/data16_hip8TeV.00313333.physics_Main.deriv.DAOD_HION6.r11416_p3868_p4315/DAOD_HION6.23148074._001219.pool.root.1
/mnt/gpfs/work/plgrid/groups/plggatlaslhc/igrabows/2016-pPb-HION6-R21/data16_hip8TeV.00313333.physics_Main.deriv.DAOD_HION6.r11416_p3868_p4315/DAOD_HION6.23148074._001220.pool.root.1
/mnt/gpfs/work/plgrid/groups/plggatlaslhc/igrabows/2016-pPb-HION6-R21/data16_hip8TeV.00313333.physics_Main.deriv.DAOD_HION6.r11416_p3868_p4315/DAOD_HION6.23148074._001221.pool.root.1
/mnt/gpfs/work/plgrid/groups/plggatlaslhc/igrabows/2016-pPb-HION6-R21/data16_hip8TeV.00313333.physics_Main.deriv.DAOD_HION6.r11416_p3868_p4315/DAOD_HION6.23148074._001222.pool.root.1
/mnt/gpfs/work/plgrid/groups/plggatlaslhc/igrabows/2016-pPb-HION6-R21/data16_hip8TeV.00313333.physics_Main.deriv.DAOD_HION6.r11416_p3868_p4315/DAOD_HION6.23148074._001223.pool.root.1
/mnt/gpfs/work/plgrid/groups/plggatlaslhc/igrabows/2016-pPb-HION6-R21/data16_hip8TeV.00313333.physics_Main.deriv.DAOD_HION6.r11416_p3868_p4315/DAOD_HION6.23148074._001224.pool.root.1
/mnt/gpfs/work/plgrid/groups/plggatlaslhc/igrabows/2016-pPb-HION6-R21/data16_hip8TeV.00313333.physics_Main.deriv.DAOD_HION6.r11416_p3868_p4315/DAOD_HION6.23148074._001225.pool.root.1
/mnt/gpfs/work/plgrid/groups/plggatlaslhc/igrabows/2016-pPb-HION6-R21/data16_hip8TeV.00313333.physics_Main.deriv.DAOD_HION6.r11416_p3868_p4315/DAOD_HION6.23148074._001226.pool.root.1
/mnt/gpfs/work/plgrid/groups/plggatlaslhc/igrabows/2016-pPb-HION6-R21/data16_hip8TeV.00313333.physics_Main.deriv.DAOD_HION6.r11416_p3868_p4315/DAOD_HION6.23148074._001227.pool.root.1
/mnt/gpfs/work/plgrid/groups/plggatlaslhc/igrabows/2016-pPb-HION6-R21/data16_hip8TeV.00313333.physics_Main.deriv.DAOD_HION6.r11416_p3868_p4315/DAOD_HION6.23148074._001228.pool.root.1
/mnt/gpfs/work/plgrid/groups/plggatlaslhc/igrabows/2016-pPb-HION6-R21/data16_hip8TeV.00313333.physics_Main.deriv.DAOD_HION6.r11416_p3868_p4315/DAOD_HION6.23148074._001229.pool.root.1
/mnt/gpfs/work/plgrid/groups/plggatlaslhc/igrabows/2016-pPb-HION6-R21/data16_hip8TeV.00313333.physics_Main.deriv.DAOD_HION6.r11416_p3868_p4315/DAOD_HION6.23148074._001230.pool.root.1
/mnt/gpfs/work/plgrid/groups/plggatlaslhc/igrabows/2016-pPb-HION6-R21/data16_hip8TeV.00313333.physics_Main.deriv.DAOD_HION6.r11416_p3868_p4315/DAOD_HION6.23148074._001231.pool.root.1
/mnt/gpfs/work/plgrid/groups/plggatlaslhc/igrabows/2016-pPb-HION6-R21/data16_hip8TeV.00313333.physics_Main.deriv.DAOD_HION6.r11416_p3868_p4315/DAOD_HION6.23148074._001232.pool.root.1
/mnt/gpfs/work/plgrid/groups/plggatlaslhc/igrabows/2016-pPb-HION6-R21/data16_hip8TeV.00313333.physics_Main.deriv.DAOD_HION6.r11416_p3868_p4315/DAOD_HION6.23148074._001233.pool.root.1
/mnt/gpfs/work/plgrid/groups/plggatlaslhc/igrabows/2016-pPb-HION6-R21/data16_hip8TeV.00313333.physics_Main.deriv.DAOD_HION6.r11416_p3868_p4315/DAOD_HION6.23148074._001234.pool.root.1
/mnt/gpfs/work/plgrid/groups/plggatlaslhc/igrabows/2016-pPb-HION6-R21/data16_hip8TeV.00313333.physics_Main.deriv.DAOD_HION6.r11416_p3868_p4315/DAOD_HION6.23148074._001235.pool.root.1
/mnt/gpfs/work/plgrid/groups/plggatlaslhc/igrabows/2016-pPb-HION6-R21/data16_hip8TeV.00313333.physics_Main.deriv.DAOD_HION6.r11416_p3868_p4315/DAOD_HION6.23148074._001236.pool.root.1
/mnt/gpfs/work/plgrid/groups/plggatlaslhc/igrabows/2016-pPb-HION6-R21/data16_hip8TeV.00313333.physics_Main.deriv.DAOD_HION6.r11416_p3868_p4315/DAOD_HION6.23148074._001237.pool.root.1
/mnt/gpfs/work/plgrid/groups/plggatlaslhc/igrabows/2016-pPb-HION6-R21/data16_hip8TeV.00313333.physics_Main.deriv.DAOD_HION6.r11416_p3868_p4315/DAOD_HION6.23148074._001238.pool.root.1
/mnt/gpfs/work/plgrid/groups/plggatlaslhc/igrabows/2016-pPb-HION6-R21/data16_hip8TeV.00313333.physics_Main.deriv.DAOD_HION6.r11416_p3868_p4315/DAOD_HION6.23148074._001239.pool.root.1
/mnt/gpfs/work/plgrid/groups/plggatlaslhc/igrabows/2016-pPb-HION6-R21/data16_hip8TeV.00313333.physics_Main.deriv.DAOD_HION6.r11416_p3868_p4315/DAOD_HION6.23148074._001240.pool.root.1
/mnt/gpfs/work/plgrid/groups/plggatlaslhc/igrabows/2016-pPb-HION6-R21/data16_hip8TeV.00313333.physics_Main.deriv.DAOD_HION6.r11416_p3868_p4315/DAOD_HION6.23148074._001241.pool.root.1
/mnt/gpfs/work/plgrid/groups/plggatlaslhc/igrabows/2016-pPb-HION6-R21/data16_hip8TeV.00313333.physics_Main.deriv.DAOD_HION6.r11416_p3868_p4315/DAOD_HION6.23148074._001242.pool.root.1
/mnt/gpfs/work/plgrid/groups/plggatlaslhc/igrabows/2016-pPb-HION6-R21/data16_hip8TeV.00313333.physics_Main.deriv.DAOD_HION6.r11416_p3868_p4315/DAOD_HION6.23148074._001243.pool.root.1
/mnt/gpfs/work/plgrid/groups/plggatlaslhc/igrabows/2016-pPb-HION6-R21/data16_hip8TeV.00313333.physics_Main.deriv.DAOD_HION6.r11416_p3868_p4315/DAOD_HION6.23148074._001244.pool.root.1
/mnt/gpfs/work/plgrid/groups/plggatlaslhc/igrabows/2016-pPb-HION6-R21/data16_hip8TeV.00313333.physics_Main.deriv.DAOD_HION6.r11416_p3868_p4315/DAOD_HION6.23148074._001245.pool.root.1
/mnt/gpfs/work/plgrid/groups/plggatlaslhc/igrabows/2016-pPb-HION6-R21/data16_hip8TeV.00313333.physics_Main.deriv.DAOD_HION6.r11416_p3868_p4315/DAOD_HION6.23148074._001246.pool.root.1
/mnt/gpfs/work/plgrid/groups/plggatlaslhc/igrabows/2016-pPb-HION6-R21/data16_hip8TeV.00313333.physics_Main.deriv.DAOD_HION6.r11416_p3868_p4315/DAOD_HION6.23148074._001247.pool.root.1
/mnt/gpfs/work/plgrid/groups/plggatlaslhc/igrabows/2016-pPb-HION6-R21/data16_hip8TeV.00313333.physics_Main.deriv.DAOD_HION6.r11416_p3868_p4315/DAOD_HION6.23148074._001248.pool.root.1
/mnt/gpfs/work/plgrid/groups/plggatlaslhc/igrabows/2016-pPb-HION6-R21/data16_hip8TeV.00313333.physics_Main.deriv.DAOD_HION6.r11416_p3868_p4315/DAOD_HION6.23148074._001249.pool.root.1
/mnt/gpfs/work/plgrid/groups/plggatlaslhc/igrabows/2016-pPb-HION6-R21/data16_hip8TeV.00313333.physics_Main.deriv.DAOD_HION6.r11416_p3868_p4315/DAOD_HION6.23148074._001250.pool.root.1
/mnt/gpfs/work/plgrid/groups/plggatlaslhc/igrabows/2016-pPb-HION6-R21/data16_hip8TeV.00313333.physics_Main.deriv.DAOD_HION6.r11416_p3868_p4315/DAOD_HION6.23148074._001251.pool.root.1
/mnt/gpfs/work/plgrid/groups/plggatlaslhc/igrabows/2016-pPb-HION6-R21/data16_hip8TeV.00313333.physics_Main.deriv.DAOD_HION6.r11416_p3868_p4315/DAOD_HION6.23148074._001252.pool.root.1
/mnt/gpfs/work/plgrid/groups/plggatlaslhc/igrabows/2016-pPb-HION6-R21/data16_hip8TeV.00313333.physics_Main.deriv.DAOD_HION6.r11416_p3868_p4315/DAOD_HION6.23148074._001253.pool.root.1
/mnt/gpfs/work/plgrid/groups/plggatlaslhc/igrabows/2016-pPb-HION6-R21/data16_hip8TeV.00313333.physics_Main.deriv.DAOD_HION6.r11416_p3868_p4315/DAOD_HION6.23148074._001254.pool.root.1
/mnt/gpfs/work/plgrid/groups/plggatlaslhc/igrabows/2016-pPb-HION6-R21/data16_hip8TeV.00313333.physics_Main.deriv.DAOD_HION6.r11416_p3868_p4315/DAOD_HION6.23148074._001255.pool.root.1
/mnt/gpfs/work/plgrid/groups/plggatlaslhc/igrabows/2016-pPb-HION6-R21/data16_hip8TeV.00313333.physics_Main.deriv.DAOD_HION6.r11416_p3868_p4315/DAOD_HION6.23148074._001256.pool.root.1
/mnt/gpfs/work/plgrid/groups/plggatlaslhc/igrabows/2016-pPb-HION6-R21/data16_hip8TeV.00313333.physics_Main.deriv.DAOD_HION6.r11416_p3868_p4315/DAOD_HION6.23148074._001257.pool.root.1
/mnt/gpfs/work/plgrid/groups/plggatlaslhc/igrabows/2016-pPb-HION6-R21/data16_hip8TeV.00313333.physics_Main.deriv.DAOD_HION6.r11416_p3868_p4315/DAOD_HION6.23148074._001258.pool.root.1
/mnt/gpfs/work/plgrid/groups/plggatlaslhc/igrabows/2016-pPb-HION6-R21/data16_hip8TeV.00313333.physics_Main.deriv.DAOD_HION6.r11416_p3868_p4315/DAOD_HION6.23148074._001259.pool.root.1
/mnt/gpfs/work/plgrid/groups/plggatlaslhc/igrabows/2016-pPb-HION6-R21/data16_hip8TeV.00313333.physics_Main.deriv.DAOD_HION6.r11416_p3868_p4315/DAOD_HION6.23148074._001260.pool.root.1
/mnt/gpfs/work/plgrid/groups/plggatlaslhc/igrabows/2016-pPb-HION6-R21/data16_hip8TeV.00313333.physics_Main.deriv.DAOD_HION6.r11416_p3868_p4315/DAOD_HION6.23148074._001261.pool.root.1
/mnt/gpfs/work/plgrid/groups/plggatlaslhc/igrabows/2016-pPb-HION6-R21/data16_hip8TeV.00313333.physics_Main.deriv.DAOD_HION6.r11416_p3868_p4315/DAOD_HION6.23148074._001262.pool.root.1
/mnt/gpfs/work/plgrid/groups/plggatlaslhc/igrabows/2016-pPb-HION6-R21/data16_hip8TeV.00313333.physics_Main.deriv.DAOD_HION6.r11416_p3868_p4315/DAOD_HION6.23148074._001263.pool.root.1
/mnt/gpfs/work/plgrid/groups/plggatlaslhc/igrabows/2016-pPb-HION6-R21/data16_hip8TeV.00313333.physics_Main.deriv.DAOD_HION6.r11416_p3868_p4315/DAOD_HION6.23148074._001264.pool.root.1
/mnt/gpfs/work/plgrid/groups/plggatlaslhc/igrabows/2016-pPb-HION6-R21/data16_hip8TeV.00313333.physics_Main.deriv.DAOD_HION6.r11416_p3868_p4315/DAOD_HION6.23148074._001265.pool.root.1
/mnt/gpfs/work/plgrid/groups/plggatlaslhc/igrabows/2016-pPb-HION6-R21/data16_hip8TeV.00313333.physics_Main.deriv.DAOD_HION6.r11416_p3868_p4315/DAOD_HION6.23148074._001266.pool.root.1
/mnt/gpfs/work/plgrid/groups/plggatlaslhc/igrabows/2016-pPb-HION6-R21/data16_hip8TeV.00313333.physics_Main.deriv.DAOD_HION6.r11416_p3868_p4315/DAOD_HION6.23148074._001267.pool.root.1
/mnt/gpfs/work/plgrid/groups/plggatlaslhc/igrabows/2016-pPb-HION6-R21/data16_hip8TeV.00313333.physics_Main.deriv.DAOD_HION6.r11416_p3868_p4315/DAOD_HION6.23148074._001268.pool.root.1
/mnt/gpfs/work/plgrid/groups/plggatlaslhc/igrabows/2016-pPb-HION6-R21/data16_hip8TeV.00313333.physics_Main.deriv.DAOD_HION6.r11416_p3868_p4315/DAOD_HION6.23148074._001269.pool.root.1
/mnt/gpfs/work/plgrid/groups/plggatlaslhc/igrabows/2016-pPb-HION6-R21/data16_hip8TeV.00313333.physics_Main.deriv.DAOD_HION6.r11416_p3868_p4315/DAOD_HION6.23148074._001270.pool.root.1
/mnt/gpfs/work/plgrid/groups/plggatlaslhc/igrabows/2016-pPb-HION6-R21/data16_hip8TeV.00313333.physics_Main.deriv.DAOD_HION6.r11416_p3868_p4315/DAOD_HION6.23148074._001271.pool.root.1
/mnt/gpfs/work/plgrid/groups/plggatlaslhc/igrabows/2016-pPb-HION6-R21/data16_hip8TeV.00313333.physics_Main.deriv.DAOD_HION6.r11416_p3868_p4315/DAOD_HION6.23148074._001272.pool.root.1
/mnt/gpfs/work/plgrid/groups/plggatlaslhc/igrabows/2016-pPb-HION6-R21/data16_hip8TeV.00313333.physics_Main.deriv.DAOD_HION6.r11416_p3868_p4315/DAOD_HION6.23148074._001273.pool.root.1
/mnt/gpfs/work/plgrid/groups/plggatlaslhc/igrabows/2016-pPb-HION6-R21/data16_hip8TeV.00313333.physics_Main.deriv.DAOD_HION6.r11416_p3868_p4315/DAOD_HION6.23148074._001274.pool.root.1
/mnt/gpfs/work/plgrid/groups/plggatlaslhc/igrabows/2016-pPb-HION6-R21/data16_hip8TeV.00313333.physics_Main.deriv.DAOD_HION6.r11416_p3868_p4315/DAOD_HION6.23148074._001275.pool.root.1
/mnt/gpfs/work/plgrid/groups/plggatlaslhc/igrabows/2016-pPb-HION6-R21/data16_hip8TeV.00313333.physics_Main.deriv.DAOD_HION6.r11416_p3868_p4315/DAOD_HION6.23148074._001276.pool.root.1
/mnt/gpfs/work/plgrid/groups/plggatlaslhc/igrabows/2016-pPb-HION6-R21/data16_hip8TeV.00313333.physics_Main.deriv.DAOD_HION6.r11416_p3868_p4315/DAOD_HION6.23148074._001277.pool.root.1
/mnt/gpfs/work/plgrid/groups/plggatlaslhc/igrabows/2016-pPb-HION6-R21/data16_hip8TeV.00313333.physics_Main.deriv.DAOD_HION6.r11416_p3868_p4315/DAOD_HION6.23148074._001278.pool.root.1
/mnt/gpfs/work/plgrid/groups/plggatlaslhc/igrabows/2016-pPb-HION6-R21/data16_hip8TeV.00313333.physics_Main.deriv.DAOD_HION6.r11416_p3868_p4315/DAOD_HION6.23148074._001279.pool.root.1
/mnt/gpfs/work/plgrid/groups/plggatlaslhc/igrabows/2016-pPb-HION6-R21/data16_hip8TeV.00313333.physics_Main.deriv.DAOD_HION6.r11416_p3868_p4315/DAOD_HION6.23148074._001280.pool.root.1
/mnt/gpfs/work/plgrid/groups/plggatlaslhc/igrabows/2016-pPb-HION6-R21/data16_hip8TeV.00313333.physics_Main.deriv.DAOD_HION6.r11416_p3868_p4315/DAOD_HION6.23148074._001281.pool.root.1
/mnt/gpfs/work/plgrid/groups/plggatlaslhc/igrabows/2016-pPb-HION6-R21/data16_hip8TeV.00313333.physics_Main.deriv.DAOD_HION6.r11416_p3868_p4315/DAOD_HION6.23148074._001282.pool.root.1
/mnt/gpfs/work/plgrid/groups/plggatlaslhc/igrabows/2016-pPb-HION6-R21/data16_hip8TeV.00313333.physics_Main.deriv.DAOD_HION6.r11416_p3868_p4315/DAOD_HION6.23148074._001283.pool.root.1
/mnt/gpfs/work/plgrid/groups/plggatlaslhc/igrabows/2016-pPb-HION6-R21/data16_hip8TeV.00313333.physics_Main.deriv.DAOD_HION6.r11416_p3868_p4315/DAOD_HION6.23148074._001284.pool.root.1
/mnt/gpfs/work/plgrid/groups/plggatlaslhc/igrabows/2016-pPb-HION6-R21/data16_hip8TeV.00313333.physics_Main.deriv.DAOD_HION6.r11416_p3868_p4315/DAOD_HION6.23148074._001285.pool.root.1
/mnt/gpfs/work/plgrid/groups/plggatlaslhc/igrabows/2016-pPb-HION6-R21/data16_hip8TeV.00313333.physics_Main.deriv.DAOD_HION6.r11416_p3868_p4315/DAOD_HION6.23148074._001286.pool.root.1
/mnt/gpfs/work/plgrid/groups/plggatlaslhc/igrabows/2016-pPb-HION6-R21/data16_hip8TeV.00313333.physics_Main.deriv.DAOD_HION6.r11416_p3868_p4315/DAOD_HION6.23148074._001287.pool.root.1
/mnt/gpfs/work/plgrid/groups/plggatlaslhc/igrabows/2016-pPb-HION6-R21/data16_hip8TeV.00313333.physics_Main.deriv.DAOD_HION6.r11416_p3868_p4315/DAOD_HION6.23148074._001288.pool.root.1
/mnt/gpfs/work/plgrid/groups/plggatlaslhc/igrabows/2016-pPb-HION6-R21/data16_hip8TeV.00313333.physics_Main.deriv.DAOD_HION6.r11416_p3868_p4315/DAOD_HION6.23148074._001289.pool.root.1
/mnt/gpfs/work/plgrid/groups/plggatlaslhc/igrabows/2016-pPb-HION6-R21/data16_hip8TeV.00313333.physics_Main.deriv.DAOD_HION6.r11416_p3868_p4315/DAOD_HION6.23148074._001290.pool.root.1
/mnt/gpfs/work/plgrid/groups/plggatlaslhc/igrabows/2016-pPb-HION6-R21/data16_hip8TeV.00313333.physics_Main.deriv.DAOD_HION6.r11416_p3868_p4315/DAOD_HION6.23148074._001291.pool.root.1
/mnt/gpfs/work/plgrid/groups/plggatlaslhc/igrabows/2016-pPb-HION6-R21/data16_hip8TeV.00313333.physics_Main.deriv.DAOD_HION6.r11416_p3868_p4315/DAOD_HION6.23148074._001292.pool.root.1
/mnt/gpfs/work/plgrid/groups/plggatlaslhc/igrabows/2016-pPb-HION6-R21/data16_hip8TeV.00313333.physics_Main.deriv.DAOD_HION6.r11416_p3868_p4315/DAOD_HION6.23148074._001293.pool.root.1
/mnt/gpfs/work/plgrid/groups/plggatlaslhc/igrabows/2016-pPb-HION6-R21/data16_hip8TeV.00313333.physics_Main.deriv.DAOD_HION6.r11416_p3868_p4315/DAOD_HION6.23148074._001294.pool.root.1
/mnt/gpfs/work/plgrid/groups/plggatlaslhc/igrabows/2016-pPb-HION6-R21/data16_hip8TeV.00313333.physics_Main.deriv.DAOD_HION6.r11416_p3868_p4315/DAOD_HION6.23148074._001295.pool.root.1
/mnt/gpfs/work/plgrid/groups/plggatlaslhc/igrabows/2016-pPb-HION6-R21/data16_hip8TeV.00313333.physics_Main.deriv.DAOD_HION6.r11416_p3868_p4315/DAOD_HION6.23148074._001296.pool.root.1
/mnt/gpfs/work/plgrid/groups/plggatlaslhc/igrabows/2016-pPb-HION6-R21/data16_hip8TeV.00313333.physics_Main.deriv.DAOD_HION6.r11416_p3868_p4315/DAOD_HION6.23148074._001297.pool.root.1
/mnt/gpfs/work/plgrid/groups/plggatlaslhc/igrabows/2016-pPb-HION6-R21/data16_hip8TeV.00313333.physics_Main.deriv.DAOD_HION6.r11416_p3868_p4315/DAOD_HION6.23148074._001298.pool.root.1
/mnt/gpfs/work/plgrid/groups/plggatlaslhc/igrabows/2016-pPb-HION6-R21/data16_hip8TeV.00313333.physics_Main.deriv.DAOD_HION6.r11416_p3868_p4315/DAOD_HION6.23148074._001299.pool.root.1
/mnt/gpfs/work/plgrid/groups/plggatlaslhc/igrabows/2016-pPb-HION6-R21/data16_hip8TeV.00313333.physics_Main.deriv.DAOD_HION6.r11416_p3868_p4315/DAOD_HION6.23148074._001300.pool.root.1
/mnt/gpfs/work/plgrid/groups/plggatlaslhc/igrabows/2016-pPb-HION6-R21/data16_hip8TeV.00313333.physics_Main.deriv.DAOD_HION6.r11416_p3868_p4315/DAOD_HION6.23148074._001301.pool.root.1
/mnt/gpfs/work/plgrid/groups/plggatlaslhc/igrabows/2016-pPb-HION6-R21/data16_hip8TeV.00313333.physics_Main.deriv.DAOD_HION6.r11416_p3868_p4315/DAOD_HION6.23148074._001302.pool.root.1
/mnt/gpfs/work/plgrid/groups/plggatlaslhc/igrabows/2016-pPb-HION6-R21/data16_hip8TeV.00313333.physics_Main.deriv.DAOD_HION6.r11416_p3868_p4315/DAOD_HION6.23148074._001303.pool.root.1
/mnt/gpfs/work/plgrid/groups/plggatlaslhc/igrabows/2016-pPb-HION6-R21/data16_hip8TeV.00313333.physics_Main.deriv.DAOD_HION6.r11416_p3868_p4315/DAOD_HION6.23148074._001304.pool.root.1
/mnt/gpfs/work/plgrid/groups/plggatlaslhc/igrabows/2016-pPb-HION6-R21/data16_hip8TeV.00313333.physics_Main.deriv.DAOD_HION6.r11416_p3868_p4315/DAOD_HION6.23148074._001305.pool.root.1
/mnt/gpfs/work/plgrid/groups/plggatlaslhc/igrabows/2016-pPb-HION6-R21/data16_hip8TeV.00313333.physics_Main.deriv.DAOD_HION6.r11416_p3868_p4315/DAOD_HION6.23148074._001306.pool.root.1
/mnt/gpfs/work/plgrid/groups/plggatlaslhc/igrabows/2016-pPb-HION6-R21/data16_hip8TeV.00313333.physics_Main.deriv.DAOD_HION6.r11416_p3868_p4315/DAOD_HION6.23148074._001307.pool.root.1
/mnt/gpfs/work/plgrid/groups/plggatlaslhc/igrabows/2016-pPb-HION6-R21/data16_hip8TeV.00313333.physics_Main.deriv.DAOD_HION6.r11416_p3868_p4315/DAOD_HION6.23148074._001308.pool.root.1
/mnt/gpfs/work/plgrid/groups/plggatlaslhc/igrabows/2016-pPb-HION6-R21/data16_hip8TeV.00313333.physics_Main.deriv.DAOD_HION6.r11416_p3868_p4315/DAOD_HION6.23148074._001309.pool.root.1
/mnt/gpfs/work/plgrid/groups/plggatlaslhc/igrabows/2016-pPb-HION6-R21/data16_hip8TeV.00313333.physics_Main.deriv.DAOD_HION6.r11416_p3868_p4315/DAOD_HION6.23148074._001310.pool.root.1
/mnt/gpfs/work/plgrid/groups/plggatlaslhc/igrabows/2016-pPb-HION6-R21/data16_hip8TeV.00313333.physics_Main.deriv.DAOD_HION6.r11416_p3868_p4315/DAOD_HION6.23148074._001311.pool.root.1
/mnt/gpfs/work/plgrid/groups/plggatlaslhc/igrabows/2016-pPb-HION6-R21/data16_hip8TeV.00313333.physics_Main.deriv.DAOD_HION6.r11416_p3868_p4315/DAOD_HION6.23148074._001312.pool.root.1
/mnt/gpfs/work/plgrid/groups/plggatlaslhc/igrabows/2016-pPb-HION6-R21/data16_hip8TeV.00313333.physics_Main.deriv.DAOD_HION6.r11416_p3868_p4315/DAOD_HION6.23148074._001313.pool.root.1
/mnt/gpfs/work/plgrid/groups/plggatlaslhc/igrabows/2016-pPb-HION6-R21/data16_hip8TeV.00313333.physics_Main.deriv.DAOD_HION6.r11416_p3868_p4315/DAOD_HION6.23148074._001314.pool.root.1
/mnt/gpfs/work/plgrid/groups/plggatlaslhc/igrabows/2016-pPb-HION6-R21/data16_hip8TeV.00313333.physics_Main.deriv.DAOD_HION6.r11416_p3868_p4315/DAOD_HION6.23148074._001315.pool.root.1
/mnt/gpfs/work/plgrid/groups/plggatlaslhc/igrabows/2016-pPb-HION6-R21/data16_hip8TeV.00313333.physics_Main.deriv.DAOD_HION6.r11416_p3868_p4315/DAOD_HION6.23148074._001316.pool.root.1
/mnt/gpfs/work/plgrid/groups/plggatlaslhc/igrabows/2016-pPb-HION6-R21/data16_hip8TeV.00313333.physics_Main.deriv.DAOD_HION6.r11416_p3868_p4315/DAOD_HION6.23148074._001317.pool.root.1
/mnt/gpfs/work/plgrid/groups/plggatlaslhc/igrabows/2016-pPb-HION6-R21/data16_hip8TeV.00313333.physics_Main.deriv.DAOD_HION6.r11416_p3868_p4315/DAOD_HION6.23148074._001318.pool.root.1
/mnt/gpfs/work/plgrid/groups/plggatlaslhc/igrabows/2016-pPb-HION6-R21/data16_hip8TeV.00313333.physics_Main.deriv.DAOD_HION6.r11416_p3868_p4315/DAOD_HION6.23148074._001319.pool.root.1
/mnt/gpfs/work/plgrid/groups/plggatlaslhc/igrabows/2016-pPb-HION6-R21/data16_hip8TeV.00313333.physics_Main.deriv.DAOD_HION6.r11416_p3868_p4315/DAOD_HION6.23148074._001320.pool.root.1
/mnt/gpfs/work/plgrid/groups/plggatlaslhc/igrabows/2016-pPb-HION6-R21/data16_hip8TeV.00313333.physics_Main.deriv.DAOD_HION6.r11416_p3868_p4315/DAOD_HION6.23148074._001321.pool.root.1
/mnt/gpfs/work/plgrid/groups/plggatlaslhc/igrabows/2016-pPb-HION6-R21/data16_hip8TeV.00313333.physics_Main.deriv.DAOD_HION6.r11416_p3868_p4315/DAOD_HION6.23148074._001323.pool.root.1
/mnt/gpfs/work/plgrid/groups/plggatlaslhc/igrabows/2016-pPb-HION6-R21/data16_hip8TeV.00313333.physics_Main.deriv.DAOD_HION6.r11416_p3868_p4315/DAOD_HION6.23148074._001324.pool.root.1
/mnt/gpfs/work/plgrid/groups/plggatlaslhc/igrabows/2016-pPb-HION6-R21/data16_hip8TeV.00313333.physics_Main.deriv.DAOD_HION6.r11416_p3868_p4315/DAOD_HION6.23148074._001325.pool.root.1
/mnt/gpfs/work/plgrid/groups/plggatlaslhc/igrabows/2016-pPb-HION6-R21/data16_hip8TeV.00313333.physics_Main.deriv.DAOD_HION6.r11416_p3868_p4315/DAOD_HION6.23148074._001326.pool.root.1
/mnt/gpfs/work/plgrid/groups/plggatlaslhc/igrabows/2016-pPb-HION6-R21/data16_hip8TeV.00313333.physics_Main.deriv.DAOD_HION6.r11416_p3868_p4315/DAOD_HION6.23148074._001327.pool.root.1
/mnt/gpfs/work/plgrid/groups/plggatlaslhc/igrabows/2016-pPb-HION6-R21/data16_hip8TeV.00313333.physics_Main.deriv.DAOD_HION6.r11416_p3868_p4315/DAOD_HION6.23148074._001328.pool.root.1
/mnt/gpfs/work/plgrid/groups/plggatlaslhc/igrabows/2016-pPb-HION6-R21/data16_hip8TeV.00313333.physics_Main.deriv.DAOD_HION6.r11416_p3868_p4315/DAOD_HION6.23148074._001329.pool.root.1
/mnt/gpfs/work/plgrid/groups/plggatlaslhc/igrabows/2016-pPb-HION6-R21/data16_hip8TeV.00313333.physics_Main.deriv.DAOD_HION6.r11416_p3868_p4315/DAOD_HION6.23148074._001330.pool.root.1
/mnt/gpfs/work/plgrid/groups/plggatlaslhc/igrabows/2016-pPb-HION6-R21/data16_hip8TeV.00313333.physics_Main.deriv.DAOD_HION6.r11416_p3868_p4315/DAOD_HION6.23148074._001331.pool.root.1
/mnt/gpfs/work/plgrid/groups/plggatlaslhc/igrabows/2016-pPb-HION6-R21/data16_hip8TeV.00313333.physics_Main.deriv.DAOD_HION6.r11416_p3868_p4315/DAOD_HION6.23148074._001332.pool.root.1
/mnt/gpfs/work/plgrid/groups/plggatlaslhc/igrabows/2016-pPb-HION6-R21/data16_hip8TeV.00313333.physics_Main.deriv.DAOD_HION6.r11416_p3868_p4315/DAOD_HION6.23148074._001333.pool.root.1
/mnt/gpfs/work/plgrid/groups/plggatlaslhc/igrabows/2016-pPb-HION6-R21/data16_hip8TeV.00313333.physics_Main.deriv.DAOD_HION6.r11416_p3868_p4315/DAOD_HION6.23148074._001334.pool.root.1
/mnt/gpfs/work/plgrid/groups/plggatlaslhc/igrabows/2016-pPb-HION6-R21/data16_hip8TeV.00313333.physics_Main.deriv.DAOD_HION6.r11416_p3868_p4315/DAOD_HION6.23148074._001335.pool.root.1
/mnt/gpfs/work/plgrid/groups/plggatlaslhc/igrabows/2016-pPb-HION6-R21/data16_hip8TeV.00313333.physics_Main.deriv.DAOD_HION6.r11416_p3868_p4315/DAOD_HION6.23148074._001336.pool.root.1
/mnt/gpfs/work/plgrid/groups/plggatlaslhc/igrabows/2016-pPb-HION6-R21/data16_hip8TeV.00313333.physics_Main.deriv.DAOD_HION6.r11416_p3868_p4315/DAOD_HION6.23148074._001337.pool.root.1
/mnt/gpfs/work/plgrid/groups/plggatlaslhc/igrabows/2016-pPb-HION6-R21/data16_hip8TeV.00313333.physics_Main.deriv.DAOD_HION6.r11416_p3868_p4315/DAOD_HION6.23148074._001338.pool.root.1
/mnt/gpfs/work/plgrid/groups/plggatlaslhc/igrabows/2016-pPb-HION6-R21/data16_hip8TeV.00313333.physics_Main.deriv.DAOD_HION6.r11416_p3868_p4315/DAOD_HION6.23148074._001339.pool.root.1
/mnt/gpfs/work/plgrid/groups/plggatlaslhc/igrabows/2016-pPb-HION6-R21/data16_hip8TeV.00313333.physics_Main.deriv.DAOD_HION6.r11416_p3868_p4315/DAOD_HION6.23148074._001340.pool.root.1
/mnt/gpfs/work/plgrid/groups/plggatlaslhc/igrabows/2016-pPb-HION6-R21/data16_hip8TeV.00313333.physics_Main.deriv.DAOD_HION6.r11416_p3868_p4315/DAOD_HION6.23148074._001341.pool.root.1
/mnt/gpfs/work/plgrid/groups/plggatlaslhc/igrabows/2016-pPb-HION6-R21/data16_hip8TeV.00313333.physics_Main.deriv.DAOD_HION6.r11416_p3868_p4315/DAOD_HION6.23148074._001342.pool.root.1
/mnt/gpfs/work/plgrid/groups/plggatlaslhc/igrabows/2016-pPb-HION6-R21/data16_hip8TeV.00313333.physics_Main.deriv.DAOD_HION6.r11416_p3868_p4315/DAOD_HION6.23148074._001343.pool.root.1
/mnt/gpfs/work/plgrid/groups/plggatlaslhc/igrabows/2016-pPb-HION6-R21/data16_hip8TeV.00313333.physics_Main.deriv.DAOD_HION6.r11416_p3868_p4315/DAOD_HION6.23148074._001344.pool.root.1
/mnt/gpfs/work/plgrid/groups/plggatlaslhc/igrabows/2016-pPb-HION6-R21/data16_hip8TeV.00313333.physics_Main.deriv.DAOD_HION6.r11416_p3868_p4315/DAOD_HION6.23148074._001345.pool.root.1
/mnt/gpfs/work/plgrid/groups/plggatlaslhc/igrabows/2016-pPb-HION6-R21/data16_hip8TeV.00313333.physics_Main.deriv.DAOD_HION6.r11416_p3868_p4315/DAOD_HION6.23148074._001346.pool.root.1
/mnt/gpfs/work/plgrid/groups/plggatlaslhc/igrabows/2016-pPb-HION6-R21/data16_hip8TeV.00313333.physics_Main.deriv.DAOD_HION6.r11416_p3868_p4315/DAOD_HION6.23148074._001347.pool.root.1
/mnt/gpfs/work/plgrid/groups/plggatlaslhc/igrabows/2016-pPb-HION6-R21/data16_hip8TeV.00313333.physics_Main.deriv.DAOD_HION6.r11416_p3868_p4315/DAOD_HION6.23148074._001348.pool.root.1
/mnt/gpfs/work/plgrid/groups/plggatlaslhc/igrabows/2016-pPb-HION6-R21/data16_hip8TeV.00313333.physics_Main.deriv.DAOD_HION6.r11416_p3868_p4315/DAOD_HION6.23148074._001349.pool.root.1
/mnt/gpfs/work/plgrid/groups/plggatlaslhc/igrabows/2016-pPb-HION6-R21/data16_hip8TeV.00313333.physics_Main.deriv.DAOD_HION6.r11416_p3868_p4315/DAOD_HION6.23148074._001350.pool.root.1
/mnt/gpfs/work/plgrid/groups/plggatlaslhc/igrabows/2016-pPb-HION6-R21/data16_hip8TeV.00313333.physics_Main.deriv.DAOD_HION6.r11416_p3868_p4315/DAOD_HION6.23148074._001351.pool.root.1
/mnt/gpfs/work/plgrid/groups/plggatlaslhc/igrabows/2016-pPb-HION6-R21/data16_hip8TeV.00313333.physics_Main.deriv.DAOD_HION6.r11416_p3868_p4315/DAOD_HION6.23148074._001352.pool.root.1
/mnt/gpfs/work/plgrid/groups/plggatlaslhc/igrabows/2016-pPb-HION6-R21/data16_hip8TeV.00313333.physics_Main.deriv.DAOD_HION6.r11416_p3868_p4315/DAOD_HION6.23148074._001353.pool.root.1
/mnt/gpfs/work/plgrid/groups/plggatlaslhc/igrabows/2016-pPb-HION6-R21/data16_hip8TeV.00313333.physics_Main.deriv.DAOD_HION6.r11416_p3868_p4315/DAOD_HION6.23148074._001355.pool.root.1
/mnt/gpfs/work/plgrid/groups/plggatlaslhc/igrabows/2016-pPb-HION6-R21/data16_hip8TeV.00313333.physics_Main.deriv.DAOD_HION6.r11416_p3868_p4315/DAOD_HION6.23148074._001356.pool.root.1
/mnt/gpfs/work/plgrid/groups/plggatlaslhc/igrabows/2016-pPb-HION6-R21/data16_hip8TeV.00313333.physics_Main.deriv.DAOD_HION6.r11416_p3868_p4315/DAOD_HION6.23148074._001357.pool.root.1
/mnt/gpfs/work/plgrid/groups/plggatlaslhc/igrabows/2016-pPb-HION6-R21/data16_hip8TeV.00313333.physics_Main.deriv.DAOD_HION6.r11416_p3868_p4315/DAOD_HION6.23148074._001358.pool.root.1
/mnt/gpfs/work/plgrid/groups/plggatlaslhc/igrabows/2016-pPb-HION6-R21/data16_hip8TeV.00313333.physics_Main.deriv.DAOD_HION6.r11416_p3868_p4315/DAOD_HION6.23148074._001359.pool.root.1
/mnt/gpfs/work/plgrid/groups/plggatlaslhc/igrabows/2016-pPb-HION6-R21/data16_hip8TeV.00313333.physics_Main.deriv.DAOD_HION6.r11416_p3868_p4315/DAOD_HION6.23148074._001360.pool.root.1
/mnt/gpfs/work/plgrid/groups/plggatlaslhc/igrabows/2016-pPb-HION6-R21/data16_hip8TeV.00313333.physics_Main.deriv.DAOD_HION6.r11416_p3868_p4315/DAOD_HION6.23148074._001361.pool.root.1
/mnt/gpfs/work/plgrid/groups/plggatlaslhc/igrabows/2016-pPb-HION6-R21/data16_hip8TeV.00313333.physics_Main.deriv.DAOD_HION6.r11416_p3868_p4315/DAOD_HION6.23148074._001362.pool.root.1
/mnt/gpfs/work/plgrid/groups/plggatlaslhc/igrabows/2016-pPb-HION6-R21/data16_hip8TeV.00313333.physics_Main.deriv.DAOD_HION6.r11416_p3868_p4315/DAOD_HION6.23148074._001363.pool.root.1
/mnt/gpfs/work/plgrid/groups/plggatlaslhc/igrabows/2016-pPb-HION6-R21/data16_hip8TeV.00313333.physics_Main.deriv.DAOD_HION6.r11416_p3868_p4315/DAOD_HION6.23148074._001364.pool.root.1
/mnt/gpfs/work/plgrid/groups/plggatlaslhc/igrabows/2016-pPb-HION6-R21/data16_hip8TeV.00313333.physics_Main.deriv.DAOD_HION6.r11416_p3868_p4315/DAOD_HION6.23148074._001365.pool.root.1
/mnt/gpfs/work/plgrid/groups/plggatlaslhc/igrabows/2016-pPb-HION6-R21/data16_hip8TeV.00313333.physics_Main.deriv.DAOD_HION6.r11416_p3868_p4315/DAOD_HION6.23148074._001366.pool.root.1
/mnt/gpfs/work/plgrid/groups/plggatlaslhc/igrabows/2016-pPb-HION6-R21/data16_hip8TeV.00313333.physics_Main.deriv.DAOD_HION6.r11416_p3868_p4315/DAOD_HION6.23148074._001367.pool.root.1
/mnt/gpfs/work/plgrid/groups/plggatlaslhc/igrabows/2016-pPb-HION6-R21/data16_hip8TeV.00313333.physics_Main.deriv.DAOD_HION6.r11416_p3868_p4315/DAOD_HION6.23148074._001368.pool.root.1
/mnt/gpfs/work/plgrid/groups/plggatlaslhc/igrabows/2016-pPb-HION6-R21/data16_hip8TeV.00313333.physics_Main.deriv.DAOD_HION6.r11416_p3868_p4315/DAOD_HION6.23148074._001369.pool.root.1
/mnt/gpfs/work/plgrid/groups/plggatlaslhc/igrabows/2016-pPb-HION6-R21/data16_hip8TeV.00313333.physics_Main.deriv.DAOD_HION6.r11416_p3868_p4315/DAOD_HION6.23148074._001370.pool.root.1
/mnt/gpfs/work/plgrid/groups/plggatlaslhc/igrabows/2016-pPb-HION6-R21/data16_hip8TeV.00313333.physics_Main.deriv.DAOD_HION6.r11416_p3868_p4315/DAOD_HION6.23148074._001371.pool.root.1
/mnt/gpfs/work/plgrid/groups/plggatlaslhc/igrabows/2016-pPb-HION6-R21/data16_hip8TeV.00313333.physics_Main.deriv.DAOD_HION6.r11416_p3868_p4315/DAOD_HION6.23148074._001372.pool.root.1
/mnt/gpfs/work/plgrid/groups/plggatlaslhc/igrabows/2016-pPb-HION6-R21/data16_hip8TeV.00313333.physics_Main.deriv.DAOD_HION6.r11416_p3868_p4315/DAOD_HION6.23148074._001373.pool.root.1
/mnt/gpfs/work/plgrid/groups/plggatlaslhc/igrabows/2016-pPb-HION6-R21/data16_hip8TeV.00313333.physics_Main.deriv.DAOD_HION6.r11416_p3868_p4315/DAOD_HION6.23148074._001375.pool.root.1
/mnt/gpfs/work/plgrid/groups/plggatlaslhc/igrabows/2016-pPb-HION6-R21/data16_hip8TeV.00313333.physics_Main.deriv.DAOD_HION6.r11416_p3868_p4315/DAOD_HION6.23148074._001376.pool.root.1
/mnt/gpfs/work/plgrid/groups/plggatlaslhc/igrabows/2016-pPb-HION6-R21/data16_hip8TeV.00313333.physics_Main.deriv.DAOD_HION6.r11416_p3868_p4315/DAOD_HION6.23148074._001377.pool.root.1
/mnt/gpfs/work/plgrid/groups/plggatlaslhc/igrabows/2016-pPb-HION6-R21/data16_hip8TeV.00313333.physics_Main.deriv.DAOD_HION6.r11416_p3868_p4315/DAOD_HION6.23148074._001378.pool.root.1
/mnt/gpfs/work/plgrid/groups/plggatlaslhc/igrabows/2016-pPb-HION6-R21/data16_hip8TeV.00313333.physics_Main.deriv.DAOD_HION6.r11416_p3868_p4315/DAOD_HION6.23148074._001379.pool.root.1
/mnt/gpfs/work/plgrid/groups/plggatlaslhc/igrabows/2016-pPb-HION6-R21/data16_hip8TeV.00313333.physics_Main.deriv.DAOD_HION6.r11416_p3868_p4315/DAOD_HION6.23148074._001380.pool.root.1
/mnt/gpfs/work/plgrid/groups/plggatlaslhc/igrabows/2016-pPb-HION6-R21/data16_hip8TeV.00313333.physics_Main.deriv.DAOD_HION6.r11416_p3868_p4315/DAOD_HION6.23148074._001381.pool.root.1
/mnt/gpfs/work/plgrid/groups/plggatlaslhc/igrabows/2016-pPb-HION6-R21/data16_hip8TeV.00313333.physics_Main.deriv.DAOD_HION6.r11416_p3868_p4315/DAOD_HION6.23148074._001382.pool.root.1
/mnt/gpfs/work/plgrid/groups/plggatlaslhc/igrabows/2016-pPb-HION6-R21/data16_hip8TeV.00313333.physics_Main.deriv.DAOD_HION6.r11416_p3868_p4315/DAOD_HION6.23148074._001383.pool.root.1
/mnt/gpfs/work/plgrid/groups/plggatlaslhc/igrabows/2016-pPb-HION6-R21/data16_hip8TeV.00313333.physics_Main.deriv.DAOD_HION6.r11416_p3868_p4315/DAOD_HION6.23148074._001384.pool.root.1
/mnt/gpfs/work/plgrid/groups/plggatlaslhc/igrabows/2016-pPb-HION6-R21/data16_hip8TeV.00313333.physics_Main.deriv.DAOD_HION6.r11416_p3868_p4315/DAOD_HION6.23148074._001385.pool.root.1
/mnt/gpfs/work/plgrid/groups/plggatlaslhc/igrabows/2016-pPb-HION6-R21/data16_hip8TeV.00313333.physics_Main.deriv.DAOD_HION6.r11416_p3868_p4315/DAOD_HION6.23148074._001386.pool.root.1
/mnt/gpfs/work/plgrid/groups/plggatlaslhc/igrabows/2016-pPb-HION6-R21/data16_hip8TeV.00313333.physics_Main.deriv.DAOD_HION6.r11416_p3868_p4315/DAOD_HION6.23148074._001387.pool.root.1
/mnt/gpfs/work/plgrid/groups/plggatlaslhc/igrabows/2016-pPb-HION6-R21/data16_hip8TeV.00313333.physics_Main.deriv.DAOD_HION6.r11416_p3868_p4315/DAOD_HION6.23148074._001388.pool.root.1
/mnt/gpfs/work/plgrid/groups/plggatlaslhc/igrabows/2016-pPb-HION6-R21/data16_hip8TeV.00313333.physics_Main.deriv.DAOD_HION6.r11416_p3868_p4315/DAOD_HION6.23148074._001389.pool.root.1
/mnt/gpfs/work/plgrid/groups/plggatlaslhc/igrabows/2016-pPb-HION6-R21/data16_hip8TeV.00313333.physics_Main.deriv.DAOD_HION6.r11416_p3868_p4315/DAOD_HION6.23148074._001390.pool.root.1
/mnt/gpfs/work/plgrid/groups/plggatlaslhc/igrabows/2016-pPb-HION6-R21/data16_hip8TeV.00313333.physics_Main.deriv.DAOD_HION6.r11416_p3868_p4315/DAOD_HION6.23148074._001391.pool.root.1
/mnt/gpfs/work/plgrid/groups/plggatlaslhc/igrabows/2016-pPb-HION6-R21/data16_hip8TeV.00313333.physics_Main.deriv.DAOD_HION6.r11416_p3868_p4315/DAOD_HION6.23148074._001392.pool.root.1
/mnt/gpfs/work/plgrid/groups/plggatlaslhc/igrabows/2016-pPb-HION6-R21/data16_hip8TeV.00313333.physics_Main.deriv.DAOD_HION6.r11416_p3868_p4315/DAOD_HION6.23148074._001393.pool.root.1
/mnt/gpfs/work/plgrid/groups/plggatlaslhc/igrabows/2016-pPb-HION6-R21/data16_hip8TeV.00313333.physics_Main.deriv.DAOD_HION6.r11416_p3868_p4315/DAOD_HION6.23148074._001394.pool.root.1
/mnt/gpfs/work/plgrid/groups/plggatlaslhc/igrabows/2016-pPb-HION6-R21/data16_hip8TeV.00313333.physics_Main.deriv.DAOD_HION6.r11416_p3868_p4315/DAOD_HION6.23148074._001396.pool.root.1
/mnt/gpfs/work/plgrid/groups/plggatlaslhc/igrabows/2016-pPb-HION6-R21/data16_hip8TeV.00313333.physics_Main.deriv.DAOD_HION6.r11416_p3868_p4315/DAOD_HION6.23148074._001397.pool.root.1
/mnt/gpfs/work/plgrid/groups/plggatlaslhc/igrabows/2016-pPb-HION6-R21/data16_hip8TeV.00313333.physics_Main.deriv.DAOD_HION6.r11416_p3868_p4315/DAOD_HION6.23148074._001398.pool.root.1
/mnt/gpfs/work/plgrid/groups/plggatlaslhc/igrabows/2016-pPb-HION6-R21/data16_hip8TeV.00313333.physics_Main.deriv.DAOD_HION6.r11416_p3868_p4315/DAOD_HION6.23148074._001399.pool.root.1
/mnt/gpfs/work/plgrid/groups/plggatlaslhc/igrabows/2016-pPb-HION6-R21/data16_hip8TeV.00313333.physics_Main.deriv.DAOD_HION6.r11416_p3868_p4315/DAOD_HION6.23148074._001400.pool.root.1
/mnt/gpfs/work/plgrid/groups/plggatlaslhc/igrabows/2016-pPb-HION6-R21/data16_hip8TeV.00313333.physics_Main.deriv.DAOD_HION6.r11416_p3868_p4315/DAOD_HION6.23148074._001401.pool.root.1
/mnt/gpfs/work/plgrid/groups/plggatlaslhc/igrabows/2016-pPb-HION6-R21/data16_hip8TeV.00313333.physics_Main.deriv.DAOD_HION6.r11416_p3868_p4315/DAOD_HION6.23148074._001402.pool.root.1
/mnt/gpfs/work/plgrid/groups/plggatlaslhc/igrabows/2016-pPb-HION6-R21/data16_hip8TeV.00313333.physics_Main.deriv.DAOD_HION6.r11416_p3868_p4315/DAOD_HION6.23148074._001403.pool.root.1
/mnt/gpfs/work/plgrid/groups/plggatlaslhc/igrabows/2016-pPb-HION6-R21/data16_hip8TeV.00313333.physics_Main.deriv.DAOD_HION6.r11416_p3868_p4315/DAOD_HION6.23148074._001404.pool.root.1
/mnt/gpfs/work/plgrid/groups/plggatlaslhc/igrabows/2016-pPb-HION6-R21/data16_hip8TeV.00313333.physics_Main.deriv.DAOD_HION6.r11416_p3868_p4315/DAOD_HION6.23148074._001405.pool.root.1
/mnt/gpfs/work/plgrid/groups/plggatlaslhc/igrabows/2016-pPb-HION6-R21/data16_hip8TeV.00313333.physics_Main.deriv.DAOD_HION6.r11416_p3868_p4315/DAOD_HION6.23148074._001406.pool.root.1
/mnt/gpfs/work/plgrid/groups/plggatlaslhc/igrabows/2016-pPb-HION6-R21/data16_hip8TeV.00313333.physics_Main.deriv.DAOD_HION6.r11416_p3868_p4315/DAOD_HION6.23148074._001407.pool.root.1
/mnt/gpfs/work/plgrid/groups/plggatlaslhc/igrabows/2016-pPb-HION6-R21/data16_hip8TeV.00313333.physics_Main.deriv.DAOD_HION6.r11416_p3868_p4315/DAOD_HION6.23148074._001408.pool.root.1
/mnt/gpfs/work/plgrid/groups/plggatlaslhc/igrabows/2016-pPb-HION6-R21/data16_hip8TeV.00313333.physics_Main.deriv.DAOD_HION6.r11416_p3868_p4315/DAOD_HION6.23148074._001409.pool.root.1
/mnt/gpfs/work/plgrid/groups/plggatlaslhc/igrabows/2016-pPb-HION6-R21/data16_hip8TeV.00313333.physics_Main.deriv.DAOD_HION6.r11416_p3868_p4315/DAOD_HION6.23148074._001410.pool.root.1
/mnt/gpfs/work/plgrid/groups/plggatlaslhc/igrabows/2016-pPb-HION6-R21/data16_hip8TeV.00313333.physics_Main.deriv.DAOD_HION6.r11416_p3868_p4315/DAOD_HION6.23148074._001411.pool.root.1
/mnt/gpfs/work/plgrid/groups/plggatlaslhc/igrabows/2016-pPb-HION6-R21/data16_hip8TeV.00313333.physics_Main.deriv.DAOD_HION6.r11416_p3868_p4315/DAOD_HION6.23148074._001412.pool.root.1
/mnt/gpfs/work/plgrid/groups/plggatlaslhc/igrabows/2016-pPb-HION6-R21/data16_hip8TeV.00313333.physics_Main.deriv.DAOD_HION6.r11416_p3868_p4315/DAOD_HION6.23148074._001413.pool.root.1
/mnt/gpfs/work/plgrid/groups/plggatlaslhc/igrabows/2016-pPb-HION6-R21/data16_hip8TeV.00313333.physics_Main.deriv.DAOD_HION6.r11416_p3868_p4315/DAOD_HION6.23148074._001414.pool.root.1
/mnt/gpfs/work/plgrid/groups/plggatlaslhc/igrabows/2016-pPb-HION6-R21/data16_hip8TeV.00313333.physics_Main.deriv.DAOD_HION6.r11416_p3868_p4315/DAOD_HION6.23148074._001415.pool.root.1
/mnt/gpfs/work/plgrid/groups/plggatlaslhc/igrabows/2016-pPb-HION6-R21/data16_hip8TeV.00313333.physics_Main.deriv.DAOD_HION6.r11416_p3868_p4315/DAOD_HION6.23148074._001416.pool.root.1
/mnt/gpfs/work/plgrid/groups/plggatlaslhc/igrabows/2016-pPb-HION6-R21/data16_hip8TeV.00313333.physics_Main.deriv.DAOD_HION6.r11416_p3868_p4315/DAOD_HION6.23148074._001417.pool.root.1
/mnt/gpfs/work/plgrid/groups/plggatlaslhc/igrabows/2016-pPb-HION6-R21/data16_hip8TeV.00313333.physics_Main.deriv.DAOD_HION6.r11416_p3868_p4315/DAOD_HION6.23148074._001418.pool.root.1
/mnt/gpfs/work/plgrid/groups/plggatlaslhc/igrabows/2016-pPb-HION6-R21/data16_hip8TeV.00313333.physics_Main.deriv.DAOD_HION6.r11416_p3868_p4315/DAOD_HION6.23148074._001419.pool.root.1
/mnt/gpfs/work/plgrid/groups/plggatlaslhc/igrabows/2016-pPb-HION6-R21/data16_hip8TeV.00313333.physics_Main.deriv.DAOD_HION6.r11416_p3868_p4315/DAOD_HION6.23148074._001420.pool.root.1
/mnt/gpfs/work/plgrid/groups/plggatlaslhc/igrabows/2016-pPb-HION6-R21/data16_hip8TeV.00313333.physics_Main.deriv.DAOD_HION6.r11416_p3868_p4315/DAOD_HION6.23148074._001421.pool.root.1
/mnt/gpfs/work/plgrid/groups/plggatlaslhc/igrabows/2016-pPb-HION6-R21/data16_hip8TeV.00313333.physics_Main.deriv.DAOD_HION6.r11416_p3868_p4315/DAOD_HION6.23148074._001422.pool.root.1
/mnt/gpfs/work/plgrid/groups/plggatlaslhc/igrabows/2016-pPb-HION6-R21/data16_hip8TeV.00313333.physics_Main.deriv.DAOD_HION6.r11416_p3868_p4315/DAOD_HION6.23148074._001423.pool.root.1
/mnt/gpfs/work/plgrid/groups/plggatlaslhc/igrabows/2016-pPb-HION6-R21/data16_hip8TeV.00313333.physics_Main.deriv.DAOD_HION6.r11416_p3868_p4315/DAOD_HION6.23148074._001424.pool.root.1
/mnt/gpfs/work/plgrid/groups/plggatlaslhc/igrabows/2016-pPb-HION6-R21/data16_hip8TeV.00313333.physics_Main.deriv.DAOD_HION6.r11416_p3868_p4315/DAOD_HION6.23148074._001425.pool.root.1
/mnt/gpfs/work/plgrid/groups/plggatlaslhc/igrabows/2016-pPb-HION6-R21/data16_hip8TeV.00313333.physics_Main.deriv.DAOD_HION6.r11416_p3868_p4315/DAOD_HION6.23148074._001426.pool.root.1
/mnt/gpfs/work/plgrid/groups/plggatlaslhc/igrabows/2016-pPb-HION6-R21/data16_hip8TeV.00313333.physics_Main.deriv.DAOD_HION6.r11416_p3868_p4315/DAOD_HION6.23148074._001427.pool.root.1
/mnt/gpfs/work/plgrid/groups/plggatlaslhc/igrabows/2016-pPb-HION6-R21/data16_hip8TeV.00313333.physics_Main.deriv.DAOD_HION6.r11416_p3868_p4315/DAOD_HION6.23148074._001428.pool.root.1
/mnt/gpfs/work/plgrid/groups/plggatlaslhc/igrabows/2016-pPb-HION6-R21/data16_hip8TeV.00313333.physics_Main.deriv.DAOD_HION6.r11416_p3868_p4315/DAOD_HION6.23148074._001429.pool.root.1
/mnt/gpfs/work/plgrid/groups/plggatlaslhc/igrabows/2016-pPb-HION6-R21/data16_hip8TeV.00313333.physics_Main.deriv.DAOD_HION6.r11416_p3868_p4315/DAOD_HION6.23148074._001430.pool.root.1
/mnt/gpfs/work/plgrid/groups/plggatlaslhc/igrabows/2016-pPb-HION6-R21/data16_hip8TeV.00313333.physics_Main.deriv.DAOD_HION6.r11416_p3868_p4315/DAOD_HION6.23148074._001431.pool.root.1
/mnt/gpfs/work/plgrid/groups/plggatlaslhc/igrabows/2016-pPb-HION6-R21/data16_hip8TeV.00313333.physics_Main.deriv.DAOD_HION6.r11416_p3868_p4315/DAOD_HION6.23148074._001432.pool.root.1
/mnt/gpfs/work/plgrid/groups/plggatlaslhc/igrabows/2016-pPb-HION6-R21/data16_hip8TeV.00313333.physics_Main.deriv.DAOD_HION6.r11416_p3868_p4315/DAOD_HION6.23148074._001433.pool.root.1
/mnt/gpfs/work/plgrid/groups/plggatlaslhc/igrabows/2016-pPb-HION6-R21/data16_hip8TeV.00313333.physics_Main.deriv.DAOD_HION6.r11416_p3868_p4315/DAOD_HION6.23148074._001434.pool.root.1
/mnt/gpfs/work/plgrid/groups/plggatlaslhc/igrabows/2016-pPb-HION6-R21/data16_hip8TeV.00313333.physics_Main.deriv.DAOD_HION6.r11416_p3868_p4315/DAOD_HION6.23148074._001435.pool.root.1
/mnt/gpfs/work/plgrid/groups/plggatlaslhc/igrabows/2016-pPb-HION6-R21/data16_hip8TeV.00313333.physics_Main.deriv.DAOD_HION6.r11416_p3868_p4315/DAOD_HION6.23148074._001436.pool.root.1
/mnt/gpfs/work/plgrid/groups/plggatlaslhc/igrabows/2016-pPb-HION6-R21/data16_hip8TeV.00313333.physics_Main.deriv.DAOD_HION6.r11416_p3868_p4315/DAOD_HION6.23148074._001437.pool.root.1
/mnt/gpfs/work/plgrid/groups/plggatlaslhc/igrabows/2016-pPb-HION6-R21/data16_hip8TeV.00313333.physics_Main.deriv.DAOD_HION6.r11416_p3868_p4315/DAOD_HION6.23148074._001438.pool.root.1
/mnt/gpfs/work/plgrid/groups/plggatlaslhc/igrabows/2016-pPb-HION6-R21/data16_hip8TeV.00313333.physics_Main.deriv.DAOD_HION6.r11416_p3868_p4315/DAOD_HION6.23148074._001439.pool.root.1
/mnt/gpfs/work/plgrid/groups/plggatlaslhc/igrabows/2016-pPb-HION6-R21/data16_hip8TeV.00313333.physics_Main.deriv.DAOD_HION6.r11416_p3868_p4315/DAOD_HION6.23148074._001440.pool.root.1
/mnt/gpfs/work/plgrid/groups/plggatlaslhc/igrabows/2016-pPb-HION6-R21/data16_hip8TeV.00313333.physics_Main.deriv.DAOD_HION6.r11416_p3868_p4315/DAOD_HION6.23148074._001441.pool.root.1
/mnt/gpfs/work/plgrid/groups/plggatlaslhc/igrabows/2016-pPb-HION6-R21/data16_hip8TeV.00313333.physics_Main.deriv.DAOD_HION6.r11416_p3868_p4315/DAOD_HION6.23148074._001442.pool.root.1
/mnt/gpfs/work/plgrid/groups/plggatlaslhc/igrabows/2016-pPb-HION6-R21/data16_hip8TeV.00313333.physics_Main.deriv.DAOD_HION6.r11416_p3868_p4315/DAOD_HION6.23148074._001443.pool.root.1
/mnt/gpfs/work/plgrid/groups/plggatlaslhc/igrabows/2016-pPb-HION6-R21/data16_hip8TeV.00313333.physics_Main.deriv.DAOD_HION6.r11416_p3868_p4315/DAOD_HION6.23148074._001444.pool.root.1
