/mnt/gpfs/work/plgrid/groups/plggatlaslhc/igrabows/2016-pPb-HION6-R21/data16_hip8TeV.00313067.physics_Main.deriv.DAOD_HION6.r11416_p3868_p4315/DAOD_HION6.23148058._000001.pool.root.1
/mnt/gpfs/work/plgrid/groups/plggatlaslhc/igrabows/2016-pPb-HION6-R21/data16_hip8TeV.00313067.physics_Main.deriv.DAOD_HION6.r11416_p3868_p4315/DAOD_HION6.23148058._000002.pool.root.1
/mnt/gpfs/work/plgrid/groups/plggatlaslhc/igrabows/2016-pPb-HION6-R21/data16_hip8TeV.00313067.physics_Main.deriv.DAOD_HION6.r11416_p3868_p4315/DAOD_HION6.23148058._000003.pool.root.1
/mnt/gpfs/work/plgrid/groups/plggatlaslhc/igrabows/2016-pPb-HION6-R21/data16_hip8TeV.00313067.physics_Main.deriv.DAOD_HION6.r11416_p3868_p4315/DAOD_HION6.23148058._000004.pool.root.1
/mnt/gpfs/work/plgrid/groups/plggatlaslhc/igrabows/2016-pPb-HION6-R21/data16_hip8TeV.00313067.physics_Main.deriv.DAOD_HION6.r11416_p3868_p4315/DAOD_HION6.23148058._000005.pool.root.1
/mnt/gpfs/work/plgrid/groups/plggatlaslhc/igrabows/2016-pPb-HION6-R21/data16_hip8TeV.00313067.physics_Main.deriv.DAOD_HION6.r11416_p3868_p4315/DAOD_HION6.23148058._000006.pool.root.1
/mnt/gpfs/work/plgrid/groups/plggatlaslhc/igrabows/2016-pPb-HION6-R21/data16_hip8TeV.00313067.physics_Main.deriv.DAOD_HION6.r11416_p3868_p4315/DAOD_HION6.23148058._000007.pool.root.1
/mnt/gpfs/work/plgrid/groups/plggatlaslhc/igrabows/2016-pPb-HION6-R21/data16_hip8TeV.00313067.physics_Main.deriv.DAOD_HION6.r11416_p3868_p4315/DAOD_HION6.23148058._000008.pool.root.1
/mnt/gpfs/work/plgrid/groups/plggatlaslhc/igrabows/2016-pPb-HION6-R21/data16_hip8TeV.00313067.physics_Main.deriv.DAOD_HION6.r11416_p3868_p4315/DAOD_HION6.23148058._000009.pool.root.1
/mnt/gpfs/work/plgrid/groups/plggatlaslhc/igrabows/2016-pPb-HION6-R21/data16_hip8TeV.00313067.physics_Main.deriv.DAOD_HION6.r11416_p3868_p4315/DAOD_HION6.23148058._000010.pool.root.1
/mnt/gpfs/work/plgrid/groups/plggatlaslhc/igrabows/2016-pPb-HION6-R21/data16_hip8TeV.00313067.physics_Main.deriv.DAOD_HION6.r11416_p3868_p4315/DAOD_HION6.23148058._000011.pool.root.1
/mnt/gpfs/work/plgrid/groups/plggatlaslhc/igrabows/2016-pPb-HION6-R21/data16_hip8TeV.00313067.physics_Main.deriv.DAOD_HION6.r11416_p3868_p4315/DAOD_HION6.23148058._000012.pool.root.1
/mnt/gpfs/work/plgrid/groups/plggatlaslhc/igrabows/2016-pPb-HION6-R21/data16_hip8TeV.00313067.physics_Main.deriv.DAOD_HION6.r11416_p3868_p4315/DAOD_HION6.23148058._000013.pool.root.1
/mnt/gpfs/work/plgrid/groups/plggatlaslhc/igrabows/2016-pPb-HION6-R21/data16_hip8TeV.00313067.physics_Main.deriv.DAOD_HION6.r11416_p3868_p4315/DAOD_HION6.23148058._000014.pool.root.1
/mnt/gpfs/work/plgrid/groups/plggatlaslhc/igrabows/2016-pPb-HION6-R21/data16_hip8TeV.00313067.physics_Main.deriv.DAOD_HION6.r11416_p3868_p4315/DAOD_HION6.23148058._000015.pool.root.1
/mnt/gpfs/work/plgrid/groups/plggatlaslhc/igrabows/2016-pPb-HION6-R21/data16_hip8TeV.00313067.physics_Main.deriv.DAOD_HION6.r11416_p3868_p4315/DAOD_HION6.23148058._000016.pool.root.1
/mnt/gpfs/work/plgrid/groups/plggatlaslhc/igrabows/2016-pPb-HION6-R21/data16_hip8TeV.00313067.physics_Main.deriv.DAOD_HION6.r11416_p3868_p4315/DAOD_HION6.23148058._000017.pool.root.1
/mnt/gpfs/work/plgrid/groups/plggatlaslhc/igrabows/2016-pPb-HION6-R21/data16_hip8TeV.00313067.physics_Main.deriv.DAOD_HION6.r11416_p3868_p4315/DAOD_HION6.23148058._000018.pool.root.1
/mnt/gpfs/work/plgrid/groups/plggatlaslhc/igrabows/2016-pPb-HION6-R21/data16_hip8TeV.00313067.physics_Main.deriv.DAOD_HION6.r11416_p3868_p4315/DAOD_HION6.23148058._000019.pool.root.1
/mnt/gpfs/work/plgrid/groups/plggatlaslhc/igrabows/2016-pPb-HION6-R21/data16_hip8TeV.00313067.physics_Main.deriv.DAOD_HION6.r11416_p3868_p4315/DAOD_HION6.23148058._000020.pool.root.1
/mnt/gpfs/work/plgrid/groups/plggatlaslhc/igrabows/2016-pPb-HION6-R21/data16_hip8TeV.00313067.physics_Main.deriv.DAOD_HION6.r11416_p3868_p4315/DAOD_HION6.23148058._000021.pool.root.1
/mnt/gpfs/work/plgrid/groups/plggatlaslhc/igrabows/2016-pPb-HION6-R21/data16_hip8TeV.00313067.physics_Main.deriv.DAOD_HION6.r11416_p3868_p4315/DAOD_HION6.23148058._000022.pool.root.1
/mnt/gpfs/work/plgrid/groups/plggatlaslhc/igrabows/2016-pPb-HION6-R21/data16_hip8TeV.00313067.physics_Main.deriv.DAOD_HION6.r11416_p3868_p4315/DAOD_HION6.23148058._000023.pool.root.1
/mnt/gpfs/work/plgrid/groups/plggatlaslhc/igrabows/2016-pPb-HION6-R21/data16_hip8TeV.00313067.physics_Main.deriv.DAOD_HION6.r11416_p3868_p4315/DAOD_HION6.23148058._000024.pool.root.1
/mnt/gpfs/work/plgrid/groups/plggatlaslhc/igrabows/2016-pPb-HION6-R21/data16_hip8TeV.00313067.physics_Main.deriv.DAOD_HION6.r11416_p3868_p4315/DAOD_HION6.23148058._000025.pool.root.1
/mnt/gpfs/work/plgrid/groups/plggatlaslhc/igrabows/2016-pPb-HION6-R21/data16_hip8TeV.00313067.physics_Main.deriv.DAOD_HION6.r11416_p3868_p4315/DAOD_HION6.23148058._000026.pool.root.1
/mnt/gpfs/work/plgrid/groups/plggatlaslhc/igrabows/2016-pPb-HION6-R21/data16_hip8TeV.00313067.physics_Main.deriv.DAOD_HION6.r11416_p3868_p4315/DAOD_HION6.23148058._000027.pool.root.1
/mnt/gpfs/work/plgrid/groups/plggatlaslhc/igrabows/2016-pPb-HION6-R21/data16_hip8TeV.00313067.physics_Main.deriv.DAOD_HION6.r11416_p3868_p4315/DAOD_HION6.23148058._000028.pool.root.1
/mnt/gpfs/work/plgrid/groups/plggatlaslhc/igrabows/2016-pPb-HION6-R21/data16_hip8TeV.00313067.physics_Main.deriv.DAOD_HION6.r11416_p3868_p4315/DAOD_HION6.23148058._000029.pool.root.1
/mnt/gpfs/work/plgrid/groups/plggatlaslhc/igrabows/2016-pPb-HION6-R21/data16_hip8TeV.00313067.physics_Main.deriv.DAOD_HION6.r11416_p3868_p4315/DAOD_HION6.23148058._000030.pool.root.1
/mnt/gpfs/work/plgrid/groups/plggatlaslhc/igrabows/2016-pPb-HION6-R21/data16_hip8TeV.00313067.physics_Main.deriv.DAOD_HION6.r11416_p3868_p4315/DAOD_HION6.23148058._000031.pool.root.1
/mnt/gpfs/work/plgrid/groups/plggatlaslhc/igrabows/2016-pPb-HION6-R21/data16_hip8TeV.00313067.physics_Main.deriv.DAOD_HION6.r11416_p3868_p4315/DAOD_HION6.23148058._000032.pool.root.1
/mnt/gpfs/work/plgrid/groups/plggatlaslhc/igrabows/2016-pPb-HION6-R21/data16_hip8TeV.00313067.physics_Main.deriv.DAOD_HION6.r11416_p3868_p4315/DAOD_HION6.23148058._000033.pool.root.1
/mnt/gpfs/work/plgrid/groups/plggatlaslhc/igrabows/2016-pPb-HION6-R21/data16_hip8TeV.00313067.physics_Main.deriv.DAOD_HION6.r11416_p3868_p4315/DAOD_HION6.23148058._000034.pool.root.1
/mnt/gpfs/work/plgrid/groups/plggatlaslhc/igrabows/2016-pPb-HION6-R21/data16_hip8TeV.00313067.physics_Main.deriv.DAOD_HION6.r11416_p3868_p4315/DAOD_HION6.23148058._000035.pool.root.1
/mnt/gpfs/work/plgrid/groups/plggatlaslhc/igrabows/2016-pPb-HION6-R21/data16_hip8TeV.00313067.physics_Main.deriv.DAOD_HION6.r11416_p3868_p4315/DAOD_HION6.23148058._000036.pool.root.1
/mnt/gpfs/work/plgrid/groups/plggatlaslhc/igrabows/2016-pPb-HION6-R21/data16_hip8TeV.00313067.physics_Main.deriv.DAOD_HION6.r11416_p3868_p4315/DAOD_HION6.23148058._000037.pool.root.1
/mnt/gpfs/work/plgrid/groups/plggatlaslhc/igrabows/2016-pPb-HION6-R21/data16_hip8TeV.00313067.physics_Main.deriv.DAOD_HION6.r11416_p3868_p4315/DAOD_HION6.23148058._000038.pool.root.1
/mnt/gpfs/work/plgrid/groups/plggatlaslhc/igrabows/2016-pPb-HION6-R21/data16_hip8TeV.00313067.physics_Main.deriv.DAOD_HION6.r11416_p3868_p4315/DAOD_HION6.23148058._000039.pool.root.1
/mnt/gpfs/work/plgrid/groups/plggatlaslhc/igrabows/2016-pPb-HION6-R21/data16_hip8TeV.00313067.physics_Main.deriv.DAOD_HION6.r11416_p3868_p4315/DAOD_HION6.23148058._000040.pool.root.1
/mnt/gpfs/work/plgrid/groups/plggatlaslhc/igrabows/2016-pPb-HION6-R21/data16_hip8TeV.00313067.physics_Main.deriv.DAOD_HION6.r11416_p3868_p4315/DAOD_HION6.23148058._000041.pool.root.1
/mnt/gpfs/work/plgrid/groups/plggatlaslhc/igrabows/2016-pPb-HION6-R21/data16_hip8TeV.00313067.physics_Main.deriv.DAOD_HION6.r11416_p3868_p4315/DAOD_HION6.23148058._000042.pool.root.1
/mnt/gpfs/work/plgrid/groups/plggatlaslhc/igrabows/2016-pPb-HION6-R21/data16_hip8TeV.00313067.physics_Main.deriv.DAOD_HION6.r11416_p3868_p4315/DAOD_HION6.23148058._000043.pool.root.1
/mnt/gpfs/work/plgrid/groups/plggatlaslhc/igrabows/2016-pPb-HION6-R21/data16_hip8TeV.00313067.physics_Main.deriv.DAOD_HION6.r11416_p3868_p4315/DAOD_HION6.23148058._000044.pool.root.1
/mnt/gpfs/work/plgrid/groups/plggatlaslhc/igrabows/2016-pPb-HION6-R21/data16_hip8TeV.00313067.physics_Main.deriv.DAOD_HION6.r11416_p3868_p4315/DAOD_HION6.23148058._000045.pool.root.1
/mnt/gpfs/work/plgrid/groups/plggatlaslhc/igrabows/2016-pPb-HION6-R21/data16_hip8TeV.00313067.physics_Main.deriv.DAOD_HION6.r11416_p3868_p4315/DAOD_HION6.23148058._000046.pool.root.1
/mnt/gpfs/work/plgrid/groups/plggatlaslhc/igrabows/2016-pPb-HION6-R21/data16_hip8TeV.00313067.physics_Main.deriv.DAOD_HION6.r11416_p3868_p4315/DAOD_HION6.23148058._000047.pool.root.1
/mnt/gpfs/work/plgrid/groups/plggatlaslhc/igrabows/2016-pPb-HION6-R21/data16_hip8TeV.00313067.physics_Main.deriv.DAOD_HION6.r11416_p3868_p4315/DAOD_HION6.23148058._000048.pool.root.1
/mnt/gpfs/work/plgrid/groups/plggatlaslhc/igrabows/2016-pPb-HION6-R21/data16_hip8TeV.00313067.physics_Main.deriv.DAOD_HION6.r11416_p3868_p4315/DAOD_HION6.23148058._000049.pool.root.1
/mnt/gpfs/work/plgrid/groups/plggatlaslhc/igrabows/2016-pPb-HION6-R21/data16_hip8TeV.00313067.physics_Main.deriv.DAOD_HION6.r11416_p3868_p4315/DAOD_HION6.23148058._000050.pool.root.1
/mnt/gpfs/work/plgrid/groups/plggatlaslhc/igrabows/2016-pPb-HION6-R21/data16_hip8TeV.00313067.physics_Main.deriv.DAOD_HION6.r11416_p3868_p4315/DAOD_HION6.23148058._000051.pool.root.1
/mnt/gpfs/work/plgrid/groups/plggatlaslhc/igrabows/2016-pPb-HION6-R21/data16_hip8TeV.00313067.physics_Main.deriv.DAOD_HION6.r11416_p3868_p4315/DAOD_HION6.23148058._000052.pool.root.1
/mnt/gpfs/work/plgrid/groups/plggatlaslhc/igrabows/2016-pPb-HION6-R21/data16_hip8TeV.00313067.physics_Main.deriv.DAOD_HION6.r11416_p3868_p4315/DAOD_HION6.23148058._000053.pool.root.1
/mnt/gpfs/work/plgrid/groups/plggatlaslhc/igrabows/2016-pPb-HION6-R21/data16_hip8TeV.00313067.physics_Main.deriv.DAOD_HION6.r11416_p3868_p4315/DAOD_HION6.23148058._000054.pool.root.1
/mnt/gpfs/work/plgrid/groups/plggatlaslhc/igrabows/2016-pPb-HION6-R21/data16_hip8TeV.00313067.physics_Main.deriv.DAOD_HION6.r11416_p3868_p4315/DAOD_HION6.23148058._000055.pool.root.1
/mnt/gpfs/work/plgrid/groups/plggatlaslhc/igrabows/2016-pPb-HION6-R21/data16_hip8TeV.00313067.physics_Main.deriv.DAOD_HION6.r11416_p3868_p4315/DAOD_HION6.23148058._000056.pool.root.1
/mnt/gpfs/work/plgrid/groups/plggatlaslhc/igrabows/2016-pPb-HION6-R21/data16_hip8TeV.00313067.physics_Main.deriv.DAOD_HION6.r11416_p3868_p4315/DAOD_HION6.23148058._000057.pool.root.1
/mnt/gpfs/work/plgrid/groups/plggatlaslhc/igrabows/2016-pPb-HION6-R21/data16_hip8TeV.00313067.physics_Main.deriv.DAOD_HION6.r11416_p3868_p4315/DAOD_HION6.23148058._000058.pool.root.1
/mnt/gpfs/work/plgrid/groups/plggatlaslhc/igrabows/2016-pPb-HION6-R21/data16_hip8TeV.00313067.physics_Main.deriv.DAOD_HION6.r11416_p3868_p4315/DAOD_HION6.23148058._000059.pool.root.1
/mnt/gpfs/work/plgrid/groups/plggatlaslhc/igrabows/2016-pPb-HION6-R21/data16_hip8TeV.00313067.physics_Main.deriv.DAOD_HION6.r11416_p3868_p4315/DAOD_HION6.23148058._000060.pool.root.1
/mnt/gpfs/work/plgrid/groups/plggatlaslhc/igrabows/2016-pPb-HION6-R21/data16_hip8TeV.00313067.physics_Main.deriv.DAOD_HION6.r11416_p3868_p4315/DAOD_HION6.23148058._000061.pool.root.1
/mnt/gpfs/work/plgrid/groups/plggatlaslhc/igrabows/2016-pPb-HION6-R21/data16_hip8TeV.00313067.physics_Main.deriv.DAOD_HION6.r11416_p3868_p4315/DAOD_HION6.23148058._000062.pool.root.1
/mnt/gpfs/work/plgrid/groups/plggatlaslhc/igrabows/2016-pPb-HION6-R21/data16_hip8TeV.00313067.physics_Main.deriv.DAOD_HION6.r11416_p3868_p4315/DAOD_HION6.23148058._000063.pool.root.1
/mnt/gpfs/work/plgrid/groups/plggatlaslhc/igrabows/2016-pPb-HION6-R21/data16_hip8TeV.00313067.physics_Main.deriv.DAOD_HION6.r11416_p3868_p4315/DAOD_HION6.23148058._000064.pool.root.1
/mnt/gpfs/work/plgrid/groups/plggatlaslhc/igrabows/2016-pPb-HION6-R21/data16_hip8TeV.00313067.physics_Main.deriv.DAOD_HION6.r11416_p3868_p4315/DAOD_HION6.23148058._000065.pool.root.1
/mnt/gpfs/work/plgrid/groups/plggatlaslhc/igrabows/2016-pPb-HION6-R21/data16_hip8TeV.00313067.physics_Main.deriv.DAOD_HION6.r11416_p3868_p4315/DAOD_HION6.23148058._000066.pool.root.1
/mnt/gpfs/work/plgrid/groups/plggatlaslhc/igrabows/2016-pPb-HION6-R21/data16_hip8TeV.00313067.physics_Main.deriv.DAOD_HION6.r11416_p3868_p4315/DAOD_HION6.23148058._000067.pool.root.1
/mnt/gpfs/work/plgrid/groups/plggatlaslhc/igrabows/2016-pPb-HION6-R21/data16_hip8TeV.00313067.physics_Main.deriv.DAOD_HION6.r11416_p3868_p4315/DAOD_HION6.23148058._000068.pool.root.1
/mnt/gpfs/work/plgrid/groups/plggatlaslhc/igrabows/2016-pPb-HION6-R21/data16_hip8TeV.00313067.physics_Main.deriv.DAOD_HION6.r11416_p3868_p4315/DAOD_HION6.23148058._000069.pool.root.1
/mnt/gpfs/work/plgrid/groups/plggatlaslhc/igrabows/2016-pPb-HION6-R21/data16_hip8TeV.00313067.physics_Main.deriv.DAOD_HION6.r11416_p3868_p4315/DAOD_HION6.23148058._000070.pool.root.1
/mnt/gpfs/work/plgrid/groups/plggatlaslhc/igrabows/2016-pPb-HION6-R21/data16_hip8TeV.00313067.physics_Main.deriv.DAOD_HION6.r11416_p3868_p4315/DAOD_HION6.23148058._000071.pool.root.1
/mnt/gpfs/work/plgrid/groups/plggatlaslhc/igrabows/2016-pPb-HION6-R21/data16_hip8TeV.00313067.physics_Main.deriv.DAOD_HION6.r11416_p3868_p4315/DAOD_HION6.23148058._000072.pool.root.1
/mnt/gpfs/work/plgrid/groups/plggatlaslhc/igrabows/2016-pPb-HION6-R21/data16_hip8TeV.00313067.physics_Main.deriv.DAOD_HION6.r11416_p3868_p4315/DAOD_HION6.23148058._000073.pool.root.1
/mnt/gpfs/work/plgrid/groups/plggatlaslhc/igrabows/2016-pPb-HION6-R21/data16_hip8TeV.00313067.physics_Main.deriv.DAOD_HION6.r11416_p3868_p4315/DAOD_HION6.23148058._000074.pool.root.1
/mnt/gpfs/work/plgrid/groups/plggatlaslhc/igrabows/2016-pPb-HION6-R21/data16_hip8TeV.00313067.physics_Main.deriv.DAOD_HION6.r11416_p3868_p4315/DAOD_HION6.23148058._000075.pool.root.1
/mnt/gpfs/work/plgrid/groups/plggatlaslhc/igrabows/2016-pPb-HION6-R21/data16_hip8TeV.00313067.physics_Main.deriv.DAOD_HION6.r11416_p3868_p4315/DAOD_HION6.23148058._000076.pool.root.1
/mnt/gpfs/work/plgrid/groups/plggatlaslhc/igrabows/2016-pPb-HION6-R21/data16_hip8TeV.00313067.physics_Main.deriv.DAOD_HION6.r11416_p3868_p4315/DAOD_HION6.23148058._000077.pool.root.1
/mnt/gpfs/work/plgrid/groups/plggatlaslhc/igrabows/2016-pPb-HION6-R21/data16_hip8TeV.00313067.physics_Main.deriv.DAOD_HION6.r11416_p3868_p4315/DAOD_HION6.23148058._000078.pool.root.1
/mnt/gpfs/work/plgrid/groups/plggatlaslhc/igrabows/2016-pPb-HION6-R21/data16_hip8TeV.00313067.physics_Main.deriv.DAOD_HION6.r11416_p3868_p4315/DAOD_HION6.23148058._000079.pool.root.1
/mnt/gpfs/work/plgrid/groups/plggatlaslhc/igrabows/2016-pPb-HION6-R21/data16_hip8TeV.00313067.physics_Main.deriv.DAOD_HION6.r11416_p3868_p4315/DAOD_HION6.23148058._000080.pool.root.1
/mnt/gpfs/work/plgrid/groups/plggatlaslhc/igrabows/2016-pPb-HION6-R21/data16_hip8TeV.00313067.physics_Main.deriv.DAOD_HION6.r11416_p3868_p4315/DAOD_HION6.23148058._000081.pool.root.1
/mnt/gpfs/work/plgrid/groups/plggatlaslhc/igrabows/2016-pPb-HION6-R21/data16_hip8TeV.00313067.physics_Main.deriv.DAOD_HION6.r11416_p3868_p4315/DAOD_HION6.23148058._000082.pool.root.1
/mnt/gpfs/work/plgrid/groups/plggatlaslhc/igrabows/2016-pPb-HION6-R21/data16_hip8TeV.00313067.physics_Main.deriv.DAOD_HION6.r11416_p3868_p4315/DAOD_HION6.23148058._000083.pool.root.1
/mnt/gpfs/work/plgrid/groups/plggatlaslhc/igrabows/2016-pPb-HION6-R21/data16_hip8TeV.00313067.physics_Main.deriv.DAOD_HION6.r11416_p3868_p4315/DAOD_HION6.23148058._000084.pool.root.1
/mnt/gpfs/work/plgrid/groups/plggatlaslhc/igrabows/2016-pPb-HION6-R21/data16_hip8TeV.00313067.physics_Main.deriv.DAOD_HION6.r11416_p3868_p4315/DAOD_HION6.23148058._000085.pool.root.1
/mnt/gpfs/work/plgrid/groups/plggatlaslhc/igrabows/2016-pPb-HION6-R21/data16_hip8TeV.00313067.physics_Main.deriv.DAOD_HION6.r11416_p3868_p4315/DAOD_HION6.23148058._000086.pool.root.1
/mnt/gpfs/work/plgrid/groups/plggatlaslhc/igrabows/2016-pPb-HION6-R21/data16_hip8TeV.00313067.physics_Main.deriv.DAOD_HION6.r11416_p3868_p4315/DAOD_HION6.23148058._000087.pool.root.1
/mnt/gpfs/work/plgrid/groups/plggatlaslhc/igrabows/2016-pPb-HION6-R21/data16_hip8TeV.00313067.physics_Main.deriv.DAOD_HION6.r11416_p3868_p4315/DAOD_HION6.23148058._000088.pool.root.1
/mnt/gpfs/work/plgrid/groups/plggatlaslhc/igrabows/2016-pPb-HION6-R21/data16_hip8TeV.00313067.physics_Main.deriv.DAOD_HION6.r11416_p3868_p4315/DAOD_HION6.23148058._000089.pool.root.1
/mnt/gpfs/work/plgrid/groups/plggatlaslhc/igrabows/2016-pPb-HION6-R21/data16_hip8TeV.00313067.physics_Main.deriv.DAOD_HION6.r11416_p3868_p4315/DAOD_HION6.23148058._000090.pool.root.1
/mnt/gpfs/work/plgrid/groups/plggatlaslhc/igrabows/2016-pPb-HION6-R21/data16_hip8TeV.00313067.physics_Main.deriv.DAOD_HION6.r11416_p3868_p4315/DAOD_HION6.23148058._000091.pool.root.1
/mnt/gpfs/work/plgrid/groups/plggatlaslhc/igrabows/2016-pPb-HION6-R21/data16_hip8TeV.00313067.physics_Main.deriv.DAOD_HION6.r11416_p3868_p4315/DAOD_HION6.23148058._000092.pool.root.1
/mnt/gpfs/work/plgrid/groups/plggatlaslhc/igrabows/2016-pPb-HION6-R21/data16_hip8TeV.00313067.physics_Main.deriv.DAOD_HION6.r11416_p3868_p4315/DAOD_HION6.23148058._000093.pool.root.1
/mnt/gpfs/work/plgrid/groups/plggatlaslhc/igrabows/2016-pPb-HION6-R21/data16_hip8TeV.00313067.physics_Main.deriv.DAOD_HION6.r11416_p3868_p4315/DAOD_HION6.23148058._000094.pool.root.1
/mnt/gpfs/work/plgrid/groups/plggatlaslhc/igrabows/2016-pPb-HION6-R21/data16_hip8TeV.00313067.physics_Main.deriv.DAOD_HION6.r11416_p3868_p4315/DAOD_HION6.23148058._000095.pool.root.1
/mnt/gpfs/work/plgrid/groups/plggatlaslhc/igrabows/2016-pPb-HION6-R21/data16_hip8TeV.00313067.physics_Main.deriv.DAOD_HION6.r11416_p3868_p4315/DAOD_HION6.23148058._000096.pool.root.1
/mnt/gpfs/work/plgrid/groups/plggatlaslhc/igrabows/2016-pPb-HION6-R21/data16_hip8TeV.00313067.physics_Main.deriv.DAOD_HION6.r11416_p3868_p4315/DAOD_HION6.23148058._000097.pool.root.1
/mnt/gpfs/work/plgrid/groups/plggatlaslhc/igrabows/2016-pPb-HION6-R21/data16_hip8TeV.00313067.physics_Main.deriv.DAOD_HION6.r11416_p3868_p4315/DAOD_HION6.23148058._000098.pool.root.1
/mnt/gpfs/work/plgrid/groups/plggatlaslhc/igrabows/2016-pPb-HION6-R21/data16_hip8TeV.00313067.physics_Main.deriv.DAOD_HION6.r11416_p3868_p4315/DAOD_HION6.23148058._000099.pool.root.1
/mnt/gpfs/work/plgrid/groups/plggatlaslhc/igrabows/2016-pPb-HION6-R21/data16_hip8TeV.00313067.physics_Main.deriv.DAOD_HION6.r11416_p3868_p4315/DAOD_HION6.23148058._000100.pool.root.1
/mnt/gpfs/work/plgrid/groups/plggatlaslhc/igrabows/2016-pPb-HION6-R21/data16_hip8TeV.00313067.physics_Main.deriv.DAOD_HION6.r11416_p3868_p4315/DAOD_HION6.23148058._000101.pool.root.1
/mnt/gpfs/work/plgrid/groups/plggatlaslhc/igrabows/2016-pPb-HION6-R21/data16_hip8TeV.00313067.physics_Main.deriv.DAOD_HION6.r11416_p3868_p4315/DAOD_HION6.23148058._000102.pool.root.1
/mnt/gpfs/work/plgrid/groups/plggatlaslhc/igrabows/2016-pPb-HION6-R21/data16_hip8TeV.00313067.physics_Main.deriv.DAOD_HION6.r11416_p3868_p4315/DAOD_HION6.23148058._000103.pool.root.1
/mnt/gpfs/work/plgrid/groups/plggatlaslhc/igrabows/2016-pPb-HION6-R21/data16_hip8TeV.00313067.physics_Main.deriv.DAOD_HION6.r11416_p3868_p4315/DAOD_HION6.23148058._000104.pool.root.1
/mnt/gpfs/work/plgrid/groups/plggatlaslhc/igrabows/2016-pPb-HION6-R21/data16_hip8TeV.00313067.physics_Main.deriv.DAOD_HION6.r11416_p3868_p4315/DAOD_HION6.23148058._000105.pool.root.1
/mnt/gpfs/work/plgrid/groups/plggatlaslhc/igrabows/2016-pPb-HION6-R21/data16_hip8TeV.00313067.physics_Main.deriv.DAOD_HION6.r11416_p3868_p4315/DAOD_HION6.23148058._000106.pool.root.1
/mnt/gpfs/work/plgrid/groups/plggatlaslhc/igrabows/2016-pPb-HION6-R21/data16_hip8TeV.00313067.physics_Main.deriv.DAOD_HION6.r11416_p3868_p4315/DAOD_HION6.23148058._000107.pool.root.1
/mnt/gpfs/work/plgrid/groups/plggatlaslhc/igrabows/2016-pPb-HION6-R21/data16_hip8TeV.00313067.physics_Main.deriv.DAOD_HION6.r11416_p3868_p4315/DAOD_HION6.23148058._000108.pool.root.1
/mnt/gpfs/work/plgrid/groups/plggatlaslhc/igrabows/2016-pPb-HION6-R21/data16_hip8TeV.00313067.physics_Main.deriv.DAOD_HION6.r11416_p3868_p4315/DAOD_HION6.23148058._000109.pool.root.1
/mnt/gpfs/work/plgrid/groups/plggatlaslhc/igrabows/2016-pPb-HION6-R21/data16_hip8TeV.00313067.physics_Main.deriv.DAOD_HION6.r11416_p3868_p4315/DAOD_HION6.23148058._000110.pool.root.1
/mnt/gpfs/work/plgrid/groups/plggatlaslhc/igrabows/2016-pPb-HION6-R21/data16_hip8TeV.00313067.physics_Main.deriv.DAOD_HION6.r11416_p3868_p4315/DAOD_HION6.23148058._000111.pool.root.1
/mnt/gpfs/work/plgrid/groups/plggatlaslhc/igrabows/2016-pPb-HION6-R21/data16_hip8TeV.00313067.physics_Main.deriv.DAOD_HION6.r11416_p3868_p4315/DAOD_HION6.23148058._000112.pool.root.1
/mnt/gpfs/work/plgrid/groups/plggatlaslhc/igrabows/2016-pPb-HION6-R21/data16_hip8TeV.00313067.physics_Main.deriv.DAOD_HION6.r11416_p3868_p4315/DAOD_HION6.23148058._000113.pool.root.1
/mnt/gpfs/work/plgrid/groups/plggatlaslhc/igrabows/2016-pPb-HION6-R21/data16_hip8TeV.00313067.physics_Main.deriv.DAOD_HION6.r11416_p3868_p4315/DAOD_HION6.23148058._000114.pool.root.1
/mnt/gpfs/work/plgrid/groups/plggatlaslhc/igrabows/2016-pPb-HION6-R21/data16_hip8TeV.00313067.physics_Main.deriv.DAOD_HION6.r11416_p3868_p4315/DAOD_HION6.23148058._000115.pool.root.1
/mnt/gpfs/work/plgrid/groups/plggatlaslhc/igrabows/2016-pPb-HION6-R21/data16_hip8TeV.00313067.physics_Main.deriv.DAOD_HION6.r11416_p3868_p4315/DAOD_HION6.23148058._000116.pool.root.1
/mnt/gpfs/work/plgrid/groups/plggatlaslhc/igrabows/2016-pPb-HION6-R21/data16_hip8TeV.00313067.physics_Main.deriv.DAOD_HION6.r11416_p3868_p4315/DAOD_HION6.23148058._000117.pool.root.1
/mnt/gpfs/work/plgrid/groups/plggatlaslhc/igrabows/2016-pPb-HION6-R21/data16_hip8TeV.00313067.physics_Main.deriv.DAOD_HION6.r11416_p3868_p4315/DAOD_HION6.23148058._000118.pool.root.1
/mnt/gpfs/work/plgrid/groups/plggatlaslhc/igrabows/2016-pPb-HION6-R21/data16_hip8TeV.00313067.physics_Main.deriv.DAOD_HION6.r11416_p3868_p4315/DAOD_HION6.23148058._000119.pool.root.1
/mnt/gpfs/work/plgrid/groups/plggatlaslhc/igrabows/2016-pPb-HION6-R21/data16_hip8TeV.00313067.physics_Main.deriv.DAOD_HION6.r11416_p3868_p4315/DAOD_HION6.23148058._000120.pool.root.1
/mnt/gpfs/work/plgrid/groups/plggatlaslhc/igrabows/2016-pPb-HION6-R21/data16_hip8TeV.00313067.physics_Main.deriv.DAOD_HION6.r11416_p3868_p4315/DAOD_HION6.23148058._000121.pool.root.1
/mnt/gpfs/work/plgrid/groups/plggatlaslhc/igrabows/2016-pPb-HION6-R21/data16_hip8TeV.00313067.physics_Main.deriv.DAOD_HION6.r11416_p3868_p4315/DAOD_HION6.23148058._000122.pool.root.1
/mnt/gpfs/work/plgrid/groups/plggatlaslhc/igrabows/2016-pPb-HION6-R21/data16_hip8TeV.00313067.physics_Main.deriv.DAOD_HION6.r11416_p3868_p4315/DAOD_HION6.23148058._000123.pool.root.1
/mnt/gpfs/work/plgrid/groups/plggatlaslhc/igrabows/2016-pPb-HION6-R21/data16_hip8TeV.00313067.physics_Main.deriv.DAOD_HION6.r11416_p3868_p4315/DAOD_HION6.23148058._000124.pool.root.1
