/mnt/gpfs/work/plgrid/groups/plggatlaslhc/igrabows/2016-pPb-HION6-R21/data16_hip8TeV.00314014.physics_Main.deriv.DAOD_HION6.r11416_p3868_p4315/DAOD_HION6.23148106._000001.pool.root.1
/mnt/gpfs/work/plgrid/groups/plggatlaslhc/igrabows/2016-pPb-HION6-R21/data16_hip8TeV.00314014.physics_Main.deriv.DAOD_HION6.r11416_p3868_p4315/DAOD_HION6.23148106._000002.pool.root.1
/mnt/gpfs/work/plgrid/groups/plggatlaslhc/igrabows/2016-pPb-HION6-R21/data16_hip8TeV.00314014.physics_Main.deriv.DAOD_HION6.r11416_p3868_p4315/DAOD_HION6.23148106._000003.pool.root.1
/mnt/gpfs/work/plgrid/groups/plggatlaslhc/igrabows/2016-pPb-HION6-R21/data16_hip8TeV.00314014.physics_Main.deriv.DAOD_HION6.r11416_p3868_p4315/DAOD_HION6.23148106._000004.pool.root.1
/mnt/gpfs/work/plgrid/groups/plggatlaslhc/igrabows/2016-pPb-HION6-R21/data16_hip8TeV.00314014.physics_Main.deriv.DAOD_HION6.r11416_p3868_p4315/DAOD_HION6.23148106._000005.pool.root.1
/mnt/gpfs/work/plgrid/groups/plggatlaslhc/igrabows/2016-pPb-HION6-R21/data16_hip8TeV.00314014.physics_Main.deriv.DAOD_HION6.r11416_p3868_p4315/DAOD_HION6.23148106._000006.pool.root.1
/mnt/gpfs/work/plgrid/groups/plggatlaslhc/igrabows/2016-pPb-HION6-R21/data16_hip8TeV.00314014.physics_Main.deriv.DAOD_HION6.r11416_p3868_p4315/DAOD_HION6.23148106._000007.pool.root.1
/mnt/gpfs/work/plgrid/groups/plggatlaslhc/igrabows/2016-pPb-HION6-R21/data16_hip8TeV.00314014.physics_Main.deriv.DAOD_HION6.r11416_p3868_p4315/DAOD_HION6.23148106._000008.pool.root.1
/mnt/gpfs/work/plgrid/groups/plggatlaslhc/igrabows/2016-pPb-HION6-R21/data16_hip8TeV.00314014.physics_Main.deriv.DAOD_HION6.r11416_p3868_p4315/DAOD_HION6.23148106._000009.pool.root.1
/mnt/gpfs/work/plgrid/groups/plggatlaslhc/igrabows/2016-pPb-HION6-R21/data16_hip8TeV.00314014.physics_Main.deriv.DAOD_HION6.r11416_p3868_p4315/DAOD_HION6.23148106._000010.pool.root.1
/mnt/gpfs/work/plgrid/groups/plggatlaslhc/igrabows/2016-pPb-HION6-R21/data16_hip8TeV.00314014.physics_Main.deriv.DAOD_HION6.r11416_p3868_p4315/DAOD_HION6.23148106._000011.pool.root.1
/mnt/gpfs/work/plgrid/groups/plggatlaslhc/igrabows/2016-pPb-HION6-R21/data16_hip8TeV.00314014.physics_Main.deriv.DAOD_HION6.r11416_p3868_p4315/DAOD_HION6.23148106._000012.pool.root.1
/mnt/gpfs/work/plgrid/groups/plggatlaslhc/igrabows/2016-pPb-HION6-R21/data16_hip8TeV.00314014.physics_Main.deriv.DAOD_HION6.r11416_p3868_p4315/DAOD_HION6.23148106._000013.pool.root.1
/mnt/gpfs/work/plgrid/groups/plggatlaslhc/igrabows/2016-pPb-HION6-R21/data16_hip8TeV.00314014.physics_Main.deriv.DAOD_HION6.r11416_p3868_p4315/DAOD_HION6.23148106._000014.pool.root.1
/mnt/gpfs/work/plgrid/groups/plggatlaslhc/igrabows/2016-pPb-HION6-R21/data16_hip8TeV.00314014.physics_Main.deriv.DAOD_HION6.r11416_p3868_p4315/DAOD_HION6.23148106._000015.pool.root.1
/mnt/gpfs/work/plgrid/groups/plggatlaslhc/igrabows/2016-pPb-HION6-R21/data16_hip8TeV.00314014.physics_Main.deriv.DAOD_HION6.r11416_p3868_p4315/DAOD_HION6.23148106._000016.pool.root.1
/mnt/gpfs/work/plgrid/groups/plggatlaslhc/igrabows/2016-pPb-HION6-R21/data16_hip8TeV.00314014.physics_Main.deriv.DAOD_HION6.r11416_p3868_p4315/DAOD_HION6.23148106._000017.pool.root.1
/mnt/gpfs/work/plgrid/groups/plggatlaslhc/igrabows/2016-pPb-HION6-R21/data16_hip8TeV.00314014.physics_Main.deriv.DAOD_HION6.r11416_p3868_p4315/DAOD_HION6.23148106._000018.pool.root.1
/mnt/gpfs/work/plgrid/groups/plggatlaslhc/igrabows/2016-pPb-HION6-R21/data16_hip8TeV.00314014.physics_Main.deriv.DAOD_HION6.r11416_p3868_p4315/DAOD_HION6.23148106._000019.pool.root.1
/mnt/gpfs/work/plgrid/groups/plggatlaslhc/igrabows/2016-pPb-HION6-R21/data16_hip8TeV.00314014.physics_Main.deriv.DAOD_HION6.r11416_p3868_p4315/DAOD_HION6.23148106._000020.pool.root.1
/mnt/gpfs/work/plgrid/groups/plggatlaslhc/igrabows/2016-pPb-HION6-R21/data16_hip8TeV.00314014.physics_Main.deriv.DAOD_HION6.r11416_p3868_p4315/DAOD_HION6.23148106._000021.pool.root.1
/mnt/gpfs/work/plgrid/groups/plggatlaslhc/igrabows/2016-pPb-HION6-R21/data16_hip8TeV.00314014.physics_Main.deriv.DAOD_HION6.r11416_p3868_p4315/DAOD_HION6.23148106._000022.pool.root.1
/mnt/gpfs/work/plgrid/groups/plggatlaslhc/igrabows/2016-pPb-HION6-R21/data16_hip8TeV.00314014.physics_Main.deriv.DAOD_HION6.r11416_p3868_p4315/DAOD_HION6.23148106._000023.pool.root.1
/mnt/gpfs/work/plgrid/groups/plggatlaslhc/igrabows/2016-pPb-HION6-R21/data16_hip8TeV.00314014.physics_Main.deriv.DAOD_HION6.r11416_p3868_p4315/DAOD_HION6.23148106._000024.pool.root.1
/mnt/gpfs/work/plgrid/groups/plggatlaslhc/igrabows/2016-pPb-HION6-R21/data16_hip8TeV.00314014.physics_Main.deriv.DAOD_HION6.r11416_p3868_p4315/DAOD_HION6.23148106._000025.pool.root.1
/mnt/gpfs/work/plgrid/groups/plggatlaslhc/igrabows/2016-pPb-HION6-R21/data16_hip8TeV.00314014.physics_Main.deriv.DAOD_HION6.r11416_p3868_p4315/DAOD_HION6.23148106._000026.pool.root.1
/mnt/gpfs/work/plgrid/groups/plggatlaslhc/igrabows/2016-pPb-HION6-R21/data16_hip8TeV.00314014.physics_Main.deriv.DAOD_HION6.r11416_p3868_p4315/DAOD_HION6.23148106._000027.pool.root.1
/mnt/gpfs/work/plgrid/groups/plggatlaslhc/igrabows/2016-pPb-HION6-R21/data16_hip8TeV.00314014.physics_Main.deriv.DAOD_HION6.r11416_p3868_p4315/DAOD_HION6.23148106._000028.pool.root.1
/mnt/gpfs/work/plgrid/groups/plggatlaslhc/igrabows/2016-pPb-HION6-R21/data16_hip8TeV.00314014.physics_Main.deriv.DAOD_HION6.r11416_p3868_p4315/DAOD_HION6.23148106._000029.pool.root.1
/mnt/gpfs/work/plgrid/groups/plggatlaslhc/igrabows/2016-pPb-HION6-R21/data16_hip8TeV.00314014.physics_Main.deriv.DAOD_HION6.r11416_p3868_p4315/DAOD_HION6.23148106._000030.pool.root.1
/mnt/gpfs/work/plgrid/groups/plggatlaslhc/igrabows/2016-pPb-HION6-R21/data16_hip8TeV.00314014.physics_Main.deriv.DAOD_HION6.r11416_p3868_p4315/DAOD_HION6.23148106._000031.pool.root.1
/mnt/gpfs/work/plgrid/groups/plggatlaslhc/igrabows/2016-pPb-HION6-R21/data16_hip8TeV.00314014.physics_Main.deriv.DAOD_HION6.r11416_p3868_p4315/DAOD_HION6.23148106._000032.pool.root.1
/mnt/gpfs/work/plgrid/groups/plggatlaslhc/igrabows/2016-pPb-HION6-R21/data16_hip8TeV.00314014.physics_Main.deriv.DAOD_HION6.r11416_p3868_p4315/DAOD_HION6.23148106._000033.pool.root.1
/mnt/gpfs/work/plgrid/groups/plggatlaslhc/igrabows/2016-pPb-HION6-R21/data16_hip8TeV.00314014.physics_Main.deriv.DAOD_HION6.r11416_p3868_p4315/DAOD_HION6.23148106._000034.pool.root.1
/mnt/gpfs/work/plgrid/groups/plggatlaslhc/igrabows/2016-pPb-HION6-R21/data16_hip8TeV.00314014.physics_Main.deriv.DAOD_HION6.r11416_p3868_p4315/DAOD_HION6.23148106._000035.pool.root.1
/mnt/gpfs/work/plgrid/groups/plggatlaslhc/igrabows/2016-pPb-HION6-R21/data16_hip8TeV.00314014.physics_Main.deriv.DAOD_HION6.r11416_p3868_p4315/DAOD_HION6.23148106._000036.pool.root.1
/mnt/gpfs/work/plgrid/groups/plggatlaslhc/igrabows/2016-pPb-HION6-R21/data16_hip8TeV.00314014.physics_Main.deriv.DAOD_HION6.r11416_p3868_p4315/DAOD_HION6.23148106._000037.pool.root.1
/mnt/gpfs/work/plgrid/groups/plggatlaslhc/igrabows/2016-pPb-HION6-R21/data16_hip8TeV.00314014.physics_Main.deriv.DAOD_HION6.r11416_p3868_p4315/DAOD_HION6.23148106._000038.pool.root.1
/mnt/gpfs/work/plgrid/groups/plggatlaslhc/igrabows/2016-pPb-HION6-R21/data16_hip8TeV.00314014.physics_Main.deriv.DAOD_HION6.r11416_p3868_p4315/DAOD_HION6.23148106._000039.pool.root.1
/mnt/gpfs/work/plgrid/groups/plggatlaslhc/igrabows/2016-pPb-HION6-R21/data16_hip8TeV.00314014.physics_Main.deriv.DAOD_HION6.r11416_p3868_p4315/DAOD_HION6.23148106._000040.pool.root.1
/mnt/gpfs/work/plgrid/groups/plggatlaslhc/igrabows/2016-pPb-HION6-R21/data16_hip8TeV.00314014.physics_Main.deriv.DAOD_HION6.r11416_p3868_p4315/DAOD_HION6.23148106._000041.pool.root.1
/mnt/gpfs/work/plgrid/groups/plggatlaslhc/igrabows/2016-pPb-HION6-R21/data16_hip8TeV.00314014.physics_Main.deriv.DAOD_HION6.r11416_p3868_p4315/DAOD_HION6.23148106._000042.pool.root.1
/mnt/gpfs/work/plgrid/groups/plggatlaslhc/igrabows/2016-pPb-HION6-R21/data16_hip8TeV.00314014.physics_Main.deriv.DAOD_HION6.r11416_p3868_p4315/DAOD_HION6.23148106._000043.pool.root.1
/mnt/gpfs/work/plgrid/groups/plggatlaslhc/igrabows/2016-pPb-HION6-R21/data16_hip8TeV.00314014.physics_Main.deriv.DAOD_HION6.r11416_p3868_p4315/DAOD_HION6.23148106._000044.pool.root.1
/mnt/gpfs/work/plgrid/groups/plggatlaslhc/igrabows/2016-pPb-HION6-R21/data16_hip8TeV.00314014.physics_Main.deriv.DAOD_HION6.r11416_p3868_p4315/DAOD_HION6.23148106._000045.pool.root.1
/mnt/gpfs/work/plgrid/groups/plggatlaslhc/igrabows/2016-pPb-HION6-R21/data16_hip8TeV.00314014.physics_Main.deriv.DAOD_HION6.r11416_p3868_p4315/DAOD_HION6.23148106._000046.pool.root.1
/mnt/gpfs/work/plgrid/groups/plggatlaslhc/igrabows/2016-pPb-HION6-R21/data16_hip8TeV.00314014.physics_Main.deriv.DAOD_HION6.r11416_p3868_p4315/DAOD_HION6.23148106._000047.pool.root.1
/mnt/gpfs/work/plgrid/groups/plggatlaslhc/igrabows/2016-pPb-HION6-R21/data16_hip8TeV.00314014.physics_Main.deriv.DAOD_HION6.r11416_p3868_p4315/DAOD_HION6.23148106._000048.pool.root.1
/mnt/gpfs/work/plgrid/groups/plggatlaslhc/igrabows/2016-pPb-HION6-R21/data16_hip8TeV.00314014.physics_Main.deriv.DAOD_HION6.r11416_p3868_p4315/DAOD_HION6.23148106._000049.pool.root.1
/mnt/gpfs/work/plgrid/groups/plggatlaslhc/igrabows/2016-pPb-HION6-R21/data16_hip8TeV.00314014.physics_Main.deriv.DAOD_HION6.r11416_p3868_p4315/DAOD_HION6.23148106._000050.pool.root.1
/mnt/gpfs/work/plgrid/groups/plggatlaslhc/igrabows/2016-pPb-HION6-R21/data16_hip8TeV.00314014.physics_Main.deriv.DAOD_HION6.r11416_p3868_p4315/DAOD_HION6.23148106._000051.pool.root.1
/mnt/gpfs/work/plgrid/groups/plggatlaslhc/igrabows/2016-pPb-HION6-R21/data16_hip8TeV.00314014.physics_Main.deriv.DAOD_HION6.r11416_p3868_p4315/DAOD_HION6.23148106._000052.pool.root.1
/mnt/gpfs/work/plgrid/groups/plggatlaslhc/igrabows/2016-pPb-HION6-R21/data16_hip8TeV.00314014.physics_Main.deriv.DAOD_HION6.r11416_p3868_p4315/DAOD_HION6.23148106._000053.pool.root.1
/mnt/gpfs/work/plgrid/groups/plggatlaslhc/igrabows/2016-pPb-HION6-R21/data16_hip8TeV.00314014.physics_Main.deriv.DAOD_HION6.r11416_p3868_p4315/DAOD_HION6.23148106._000054.pool.root.1
/mnt/gpfs/work/plgrid/groups/plggatlaslhc/igrabows/2016-pPb-HION6-R21/data16_hip8TeV.00314014.physics_Main.deriv.DAOD_HION6.r11416_p3868_p4315/DAOD_HION6.23148106._000055.pool.root.1
/mnt/gpfs/work/plgrid/groups/plggatlaslhc/igrabows/2016-pPb-HION6-R21/data16_hip8TeV.00314014.physics_Main.deriv.DAOD_HION6.r11416_p3868_p4315/DAOD_HION6.23148106._000056.pool.root.1
/mnt/gpfs/work/plgrid/groups/plggatlaslhc/igrabows/2016-pPb-HION6-R21/data16_hip8TeV.00314014.physics_Main.deriv.DAOD_HION6.r11416_p3868_p4315/DAOD_HION6.23148106._000057.pool.root.1
/mnt/gpfs/work/plgrid/groups/plggatlaslhc/igrabows/2016-pPb-HION6-R21/data16_hip8TeV.00314014.physics_Main.deriv.DAOD_HION6.r11416_p3868_p4315/DAOD_HION6.23148106._000058.pool.root.1
/mnt/gpfs/work/plgrid/groups/plggatlaslhc/igrabows/2016-pPb-HION6-R21/data16_hip8TeV.00314014.physics_Main.deriv.DAOD_HION6.r11416_p3868_p4315/DAOD_HION6.23148106._000059.pool.root.1
/mnt/gpfs/work/plgrid/groups/plggatlaslhc/igrabows/2016-pPb-HION6-R21/data16_hip8TeV.00314014.physics_Main.deriv.DAOD_HION6.r11416_p3868_p4315/DAOD_HION6.23148106._000060.pool.root.1
/mnt/gpfs/work/plgrid/groups/plggatlaslhc/igrabows/2016-pPb-HION6-R21/data16_hip8TeV.00314014.physics_Main.deriv.DAOD_HION6.r11416_p3868_p4315/DAOD_HION6.23148106._000061.pool.root.1
/mnt/gpfs/work/plgrid/groups/plggatlaslhc/igrabows/2016-pPb-HION6-R21/data16_hip8TeV.00314014.physics_Main.deriv.DAOD_HION6.r11416_p3868_p4315/DAOD_HION6.23148106._000062.pool.root.1
/mnt/gpfs/work/plgrid/groups/plggatlaslhc/igrabows/2016-pPb-HION6-R21/data16_hip8TeV.00314014.physics_Main.deriv.DAOD_HION6.r11416_p3868_p4315/DAOD_HION6.23148106._000063.pool.root.1
/mnt/gpfs/work/plgrid/groups/plggatlaslhc/igrabows/2016-pPb-HION6-R21/data16_hip8TeV.00314014.physics_Main.deriv.DAOD_HION6.r11416_p3868_p4315/DAOD_HION6.23148106._000064.pool.root.1
/mnt/gpfs/work/plgrid/groups/plggatlaslhc/igrabows/2016-pPb-HION6-R21/data16_hip8TeV.00314014.physics_Main.deriv.DAOD_HION6.r11416_p3868_p4315/DAOD_HION6.23148106._000065.pool.root.1
/mnt/gpfs/work/plgrid/groups/plggatlaslhc/igrabows/2016-pPb-HION6-R21/data16_hip8TeV.00314014.physics_Main.deriv.DAOD_HION6.r11416_p3868_p4315/DAOD_HION6.23148106._000066.pool.root.1
/mnt/gpfs/work/plgrid/groups/plggatlaslhc/igrabows/2016-pPb-HION6-R21/data16_hip8TeV.00314014.physics_Main.deriv.DAOD_HION6.r11416_p3868_p4315/DAOD_HION6.23148106._000067.pool.root.1
/mnt/gpfs/work/plgrid/groups/plggatlaslhc/igrabows/2016-pPb-HION6-R21/data16_hip8TeV.00314014.physics_Main.deriv.DAOD_HION6.r11416_p3868_p4315/DAOD_HION6.23148106._000068.pool.root.1
/mnt/gpfs/work/plgrid/groups/plggatlaslhc/igrabows/2016-pPb-HION6-R21/data16_hip8TeV.00314014.physics_Main.deriv.DAOD_HION6.r11416_p3868_p4315/DAOD_HION6.23148106._000069.pool.root.1
/mnt/gpfs/work/plgrid/groups/plggatlaslhc/igrabows/2016-pPb-HION6-R21/data16_hip8TeV.00314014.physics_Main.deriv.DAOD_HION6.r11416_p3868_p4315/DAOD_HION6.23148106._000070.pool.root.1
/mnt/gpfs/work/plgrid/groups/plggatlaslhc/igrabows/2016-pPb-HION6-R21/data16_hip8TeV.00314014.physics_Main.deriv.DAOD_HION6.r11416_p3868_p4315/DAOD_HION6.23148106._000071.pool.root.1
/mnt/gpfs/work/plgrid/groups/plggatlaslhc/igrabows/2016-pPb-HION6-R21/data16_hip8TeV.00314014.physics_Main.deriv.DAOD_HION6.r11416_p3868_p4315/DAOD_HION6.23148106._000072.pool.root.1
/mnt/gpfs/work/plgrid/groups/plggatlaslhc/igrabows/2016-pPb-HION6-R21/data16_hip8TeV.00314014.physics_Main.deriv.DAOD_HION6.r11416_p3868_p4315/DAOD_HION6.23148106._000073.pool.root.1
/mnt/gpfs/work/plgrid/groups/plggatlaslhc/igrabows/2016-pPb-HION6-R21/data16_hip8TeV.00314014.physics_Main.deriv.DAOD_HION6.r11416_p3868_p4315/DAOD_HION6.23148106._000074.pool.root.1
/mnt/gpfs/work/plgrid/groups/plggatlaslhc/igrabows/2016-pPb-HION6-R21/data16_hip8TeV.00314014.physics_Main.deriv.DAOD_HION6.r11416_p3868_p4315/DAOD_HION6.23148106._000075.pool.root.1
/mnt/gpfs/work/plgrid/groups/plggatlaslhc/igrabows/2016-pPb-HION6-R21/data16_hip8TeV.00314014.physics_Main.deriv.DAOD_HION6.r11416_p3868_p4315/DAOD_HION6.23148106._000076.pool.root.1
/mnt/gpfs/work/plgrid/groups/plggatlaslhc/igrabows/2016-pPb-HION6-R21/data16_hip8TeV.00314014.physics_Main.deriv.DAOD_HION6.r11416_p3868_p4315/DAOD_HION6.23148106._000077.pool.root.1
/mnt/gpfs/work/plgrid/groups/plggatlaslhc/igrabows/2016-pPb-HION6-R21/data16_hip8TeV.00314014.physics_Main.deriv.DAOD_HION6.r11416_p3868_p4315/DAOD_HION6.23148106._000078.pool.root.1
/mnt/gpfs/work/plgrid/groups/plggatlaslhc/igrabows/2016-pPb-HION6-R21/data16_hip8TeV.00314014.physics_Main.deriv.DAOD_HION6.r11416_p3868_p4315/DAOD_HION6.23148106._000079.pool.root.1
/mnt/gpfs/work/plgrid/groups/plggatlaslhc/igrabows/2016-pPb-HION6-R21/data16_hip8TeV.00314014.physics_Main.deriv.DAOD_HION6.r11416_p3868_p4315/DAOD_HION6.23148106._000080.pool.root.1
/mnt/gpfs/work/plgrid/groups/plggatlaslhc/igrabows/2016-pPb-HION6-R21/data16_hip8TeV.00314014.physics_Main.deriv.DAOD_HION6.r11416_p3868_p4315/DAOD_HION6.23148106._000081.pool.root.1
/mnt/gpfs/work/plgrid/groups/plggatlaslhc/igrabows/2016-pPb-HION6-R21/data16_hip8TeV.00314014.physics_Main.deriv.DAOD_HION6.r11416_p3868_p4315/DAOD_HION6.23148106._000082.pool.root.1
/mnt/gpfs/work/plgrid/groups/plggatlaslhc/igrabows/2016-pPb-HION6-R21/data16_hip8TeV.00314014.physics_Main.deriv.DAOD_HION6.r11416_p3868_p4315/DAOD_HION6.23148106._000083.pool.root.1
/mnt/gpfs/work/plgrid/groups/plggatlaslhc/igrabows/2016-pPb-HION6-R21/data16_hip8TeV.00314014.physics_Main.deriv.DAOD_HION6.r11416_p3868_p4315/DAOD_HION6.23148106._000084.pool.root.1
/mnt/gpfs/work/plgrid/groups/plggatlaslhc/igrabows/2016-pPb-HION6-R21/data16_hip8TeV.00314014.physics_Main.deriv.DAOD_HION6.r11416_p3868_p4315/DAOD_HION6.23148106._000085.pool.root.1
/mnt/gpfs/work/plgrid/groups/plggatlaslhc/igrabows/2016-pPb-HION6-R21/data16_hip8TeV.00314014.physics_Main.deriv.DAOD_HION6.r11416_p3868_p4315/DAOD_HION6.23148106._000086.pool.root.1
/mnt/gpfs/work/plgrid/groups/plggatlaslhc/igrabows/2016-pPb-HION6-R21/data16_hip8TeV.00314014.physics_Main.deriv.DAOD_HION6.r11416_p3868_p4315/DAOD_HION6.23148106._000087.pool.root.1
/mnt/gpfs/work/plgrid/groups/plggatlaslhc/igrabows/2016-pPb-HION6-R21/data16_hip8TeV.00314014.physics_Main.deriv.DAOD_HION6.r11416_p3868_p4315/DAOD_HION6.23148106._000088.pool.root.1
/mnt/gpfs/work/plgrid/groups/plggatlaslhc/igrabows/2016-pPb-HION6-R21/data16_hip8TeV.00314014.physics_Main.deriv.DAOD_HION6.r11416_p3868_p4315/DAOD_HION6.23148106._000089.pool.root.1
/mnt/gpfs/work/plgrid/groups/plggatlaslhc/igrabows/2016-pPb-HION6-R21/data16_hip8TeV.00314014.physics_Main.deriv.DAOD_HION6.r11416_p3868_p4315/DAOD_HION6.23148106._000090.pool.root.1
/mnt/gpfs/work/plgrid/groups/plggatlaslhc/igrabows/2016-pPb-HION6-R21/data16_hip8TeV.00314014.physics_Main.deriv.DAOD_HION6.r11416_p3868_p4315/DAOD_HION6.23148106._000091.pool.root.1
/mnt/gpfs/work/plgrid/groups/plggatlaslhc/igrabows/2016-pPb-HION6-R21/data16_hip8TeV.00314014.physics_Main.deriv.DAOD_HION6.r11416_p3868_p4315/DAOD_HION6.23148106._000092.pool.root.1
/mnt/gpfs/work/plgrid/groups/plggatlaslhc/igrabows/2016-pPb-HION6-R21/data16_hip8TeV.00314014.physics_Main.deriv.DAOD_HION6.r11416_p3868_p4315/DAOD_HION6.23148106._000093.pool.root.1
/mnt/gpfs/work/plgrid/groups/plggatlaslhc/igrabows/2016-pPb-HION6-R21/data16_hip8TeV.00314014.physics_Main.deriv.DAOD_HION6.r11416_p3868_p4315/DAOD_HION6.23148106._000094.pool.root.1
/mnt/gpfs/work/plgrid/groups/plggatlaslhc/igrabows/2016-pPb-HION6-R21/data16_hip8TeV.00314014.physics_Main.deriv.DAOD_HION6.r11416_p3868_p4315/DAOD_HION6.23148106._000095.pool.root.1
/mnt/gpfs/work/plgrid/groups/plggatlaslhc/igrabows/2016-pPb-HION6-R21/data16_hip8TeV.00314014.physics_Main.deriv.DAOD_HION6.r11416_p3868_p4315/DAOD_HION6.23148106._000096.pool.root.1
/mnt/gpfs/work/plgrid/groups/plggatlaslhc/igrabows/2016-pPb-HION6-R21/data16_hip8TeV.00314014.physics_Main.deriv.DAOD_HION6.r11416_p3868_p4315/DAOD_HION6.23148106._000097.pool.root.1
/mnt/gpfs/work/plgrid/groups/plggatlaslhc/igrabows/2016-pPb-HION6-R21/data16_hip8TeV.00314014.physics_Main.deriv.DAOD_HION6.r11416_p3868_p4315/DAOD_HION6.23148106._000098.pool.root.1
/mnt/gpfs/work/plgrid/groups/plggatlaslhc/igrabows/2016-pPb-HION6-R21/data16_hip8TeV.00314014.physics_Main.deriv.DAOD_HION6.r11416_p3868_p4315/DAOD_HION6.23148106._000099.pool.root.1
/mnt/gpfs/work/plgrid/groups/plggatlaslhc/igrabows/2016-pPb-HION6-R21/data16_hip8TeV.00314014.physics_Main.deriv.DAOD_HION6.r11416_p3868_p4315/DAOD_HION6.23148106._000100.pool.root.1
/mnt/gpfs/work/plgrid/groups/plggatlaslhc/igrabows/2016-pPb-HION6-R21/data16_hip8TeV.00314014.physics_Main.deriv.DAOD_HION6.r11416_p3868_p4315/DAOD_HION6.23148106._000101.pool.root.1
/mnt/gpfs/work/plgrid/groups/plggatlaslhc/igrabows/2016-pPb-HION6-R21/data16_hip8TeV.00314014.physics_Main.deriv.DAOD_HION6.r11416_p3868_p4315/DAOD_HION6.23148106._000102.pool.root.1
/mnt/gpfs/work/plgrid/groups/plggatlaslhc/igrabows/2016-pPb-HION6-R21/data16_hip8TeV.00314014.physics_Main.deriv.DAOD_HION6.r11416_p3868_p4315/DAOD_HION6.23148106._000103.pool.root.1
/mnt/gpfs/work/plgrid/groups/plggatlaslhc/igrabows/2016-pPb-HION6-R21/data16_hip8TeV.00314014.physics_Main.deriv.DAOD_HION6.r11416_p3868_p4315/DAOD_HION6.23148106._000104.pool.root.1
/mnt/gpfs/work/plgrid/groups/plggatlaslhc/igrabows/2016-pPb-HION6-R21/data16_hip8TeV.00314014.physics_Main.deriv.DAOD_HION6.r11416_p3868_p4315/DAOD_HION6.23148106._000105.pool.root.1
/mnt/gpfs/work/plgrid/groups/plggatlaslhc/igrabows/2016-pPb-HION6-R21/data16_hip8TeV.00314014.physics_Main.deriv.DAOD_HION6.r11416_p3868_p4315/DAOD_HION6.23148106._000106.pool.root.1
/mnt/gpfs/work/plgrid/groups/plggatlaslhc/igrabows/2016-pPb-HION6-R21/data16_hip8TeV.00314014.physics_Main.deriv.DAOD_HION6.r11416_p3868_p4315/DAOD_HION6.23148106._000107.pool.root.1
/mnt/gpfs/work/plgrid/groups/plggatlaslhc/igrabows/2016-pPb-HION6-R21/data16_hip8TeV.00314014.physics_Main.deriv.DAOD_HION6.r11416_p3868_p4315/DAOD_HION6.23148106._000108.pool.root.1
/mnt/gpfs/work/plgrid/groups/plggatlaslhc/igrabows/2016-pPb-HION6-R21/data16_hip8TeV.00314014.physics_Main.deriv.DAOD_HION6.r11416_p3868_p4315/DAOD_HION6.23148106._000109.pool.root.1
/mnt/gpfs/work/plgrid/groups/plggatlaslhc/igrabows/2016-pPb-HION6-R21/data16_hip8TeV.00314014.physics_Main.deriv.DAOD_HION6.r11416_p3868_p4315/DAOD_HION6.23148106._000110.pool.root.1
/mnt/gpfs/work/plgrid/groups/plggatlaslhc/igrabows/2016-pPb-HION6-R21/data16_hip8TeV.00314014.physics_Main.deriv.DAOD_HION6.r11416_p3868_p4315/DAOD_HION6.23148106._000111.pool.root.1
/mnt/gpfs/work/plgrid/groups/plggatlaslhc/igrabows/2016-pPb-HION6-R21/data16_hip8TeV.00314014.physics_Main.deriv.DAOD_HION6.r11416_p3868_p4315/DAOD_HION6.23148106._000112.pool.root.1
/mnt/gpfs/work/plgrid/groups/plggatlaslhc/igrabows/2016-pPb-HION6-R21/data16_hip8TeV.00314014.physics_Main.deriv.DAOD_HION6.r11416_p3868_p4315/DAOD_HION6.23148106._000113.pool.root.1
/mnt/gpfs/work/plgrid/groups/plggatlaslhc/igrabows/2016-pPb-HION6-R21/data16_hip8TeV.00314014.physics_Main.deriv.DAOD_HION6.r11416_p3868_p4315/DAOD_HION6.23148106._000114.pool.root.1
/mnt/gpfs/work/plgrid/groups/plggatlaslhc/igrabows/2016-pPb-HION6-R21/data16_hip8TeV.00314014.physics_Main.deriv.DAOD_HION6.r11416_p3868_p4315/DAOD_HION6.23148106._000115.pool.root.1
/mnt/gpfs/work/plgrid/groups/plggatlaslhc/igrabows/2016-pPb-HION6-R21/data16_hip8TeV.00314014.physics_Main.deriv.DAOD_HION6.r11416_p3868_p4315/DAOD_HION6.23148106._000116.pool.root.1
/mnt/gpfs/work/plgrid/groups/plggatlaslhc/igrabows/2016-pPb-HION6-R21/data16_hip8TeV.00314014.physics_Main.deriv.DAOD_HION6.r11416_p3868_p4315/DAOD_HION6.23148106._000117.pool.root.1
/mnt/gpfs/work/plgrid/groups/plggatlaslhc/igrabows/2016-pPb-HION6-R21/data16_hip8TeV.00314014.physics_Main.deriv.DAOD_HION6.r11416_p3868_p4315/DAOD_HION6.23148106._000118.pool.root.1
/mnt/gpfs/work/plgrid/groups/plggatlaslhc/igrabows/2016-pPb-HION6-R21/data16_hip8TeV.00314014.physics_Main.deriv.DAOD_HION6.r11416_p3868_p4315/DAOD_HION6.23148106._000119.pool.root.1
/mnt/gpfs/work/plgrid/groups/plggatlaslhc/igrabows/2016-pPb-HION6-R21/data16_hip8TeV.00314014.physics_Main.deriv.DAOD_HION6.r11416_p3868_p4315/DAOD_HION6.23148106._000120.pool.root.1
/mnt/gpfs/work/plgrid/groups/plggatlaslhc/igrabows/2016-pPb-HION6-R21/data16_hip8TeV.00314014.physics_Main.deriv.DAOD_HION6.r11416_p3868_p4315/DAOD_HION6.23148106._000121.pool.root.1
/mnt/gpfs/work/plgrid/groups/plggatlaslhc/igrabows/2016-pPb-HION6-R21/data16_hip8TeV.00314014.physics_Main.deriv.DAOD_HION6.r11416_p3868_p4315/DAOD_HION6.23148106._000122.pool.root.1
/mnt/gpfs/work/plgrid/groups/plggatlaslhc/igrabows/2016-pPb-HION6-R21/data16_hip8TeV.00314014.physics_Main.deriv.DAOD_HION6.r11416_p3868_p4315/DAOD_HION6.23148106._000123.pool.root.1
/mnt/gpfs/work/plgrid/groups/plggatlaslhc/igrabows/2016-pPb-HION6-R21/data16_hip8TeV.00314014.physics_Main.deriv.DAOD_HION6.r11416_p3868_p4315/DAOD_HION6.23148106._000124.pool.root.1
/mnt/gpfs/work/plgrid/groups/plggatlaslhc/igrabows/2016-pPb-HION6-R21/data16_hip8TeV.00314014.physics_Main.deriv.DAOD_HION6.r11416_p3868_p4315/DAOD_HION6.23148106._000125.pool.root.1
/mnt/gpfs/work/plgrid/groups/plggatlaslhc/igrabows/2016-pPb-HION6-R21/data16_hip8TeV.00314014.physics_Main.deriv.DAOD_HION6.r11416_p3868_p4315/DAOD_HION6.23148106._000126.pool.root.1
/mnt/gpfs/work/plgrid/groups/plggatlaslhc/igrabows/2016-pPb-HION6-R21/data16_hip8TeV.00314014.physics_Main.deriv.DAOD_HION6.r11416_p3868_p4315/DAOD_HION6.23148106._000127.pool.root.1
/mnt/gpfs/work/plgrid/groups/plggatlaslhc/igrabows/2016-pPb-HION6-R21/data16_hip8TeV.00314014.physics_Main.deriv.DAOD_HION6.r11416_p3868_p4315/DAOD_HION6.23148106._000128.pool.root.1
/mnt/gpfs/work/plgrid/groups/plggatlaslhc/igrabows/2016-pPb-HION6-R21/data16_hip8TeV.00314014.physics_Main.deriv.DAOD_HION6.r11416_p3868_p4315/DAOD_HION6.23148106._000129.pool.root.1
/mnt/gpfs/work/plgrid/groups/plggatlaslhc/igrabows/2016-pPb-HION6-R21/data16_hip8TeV.00314014.physics_Main.deriv.DAOD_HION6.r11416_p3868_p4315/DAOD_HION6.23148106._000130.pool.root.1
/mnt/gpfs/work/plgrid/groups/plggatlaslhc/igrabows/2016-pPb-HION6-R21/data16_hip8TeV.00314014.physics_Main.deriv.DAOD_HION6.r11416_p3868_p4315/DAOD_HION6.23148106._000131.pool.root.1
/mnt/gpfs/work/plgrid/groups/plggatlaslhc/igrabows/2016-pPb-HION6-R21/data16_hip8TeV.00314014.physics_Main.deriv.DAOD_HION6.r11416_p3868_p4315/DAOD_HION6.23148106._000132.pool.root.1
/mnt/gpfs/work/plgrid/groups/plggatlaslhc/igrabows/2016-pPb-HION6-R21/data16_hip8TeV.00314014.physics_Main.deriv.DAOD_HION6.r11416_p3868_p4315/DAOD_HION6.23148106._000133.pool.root.1
/mnt/gpfs/work/plgrid/groups/plggatlaslhc/igrabows/2016-pPb-HION6-R21/data16_hip8TeV.00314014.physics_Main.deriv.DAOD_HION6.r11416_p3868_p4315/DAOD_HION6.23148106._000134.pool.root.1
/mnt/gpfs/work/plgrid/groups/plggatlaslhc/igrabows/2016-pPb-HION6-R21/data16_hip8TeV.00314014.physics_Main.deriv.DAOD_HION6.r11416_p3868_p4315/DAOD_HION6.23148106._000135.pool.root.1
/mnt/gpfs/work/plgrid/groups/plggatlaslhc/igrabows/2016-pPb-HION6-R21/data16_hip8TeV.00314014.physics_Main.deriv.DAOD_HION6.r11416_p3868_p4315/DAOD_HION6.23148106._000136.pool.root.1
/mnt/gpfs/work/plgrid/groups/plggatlaslhc/igrabows/2016-pPb-HION6-R21/data16_hip8TeV.00314014.physics_Main.deriv.DAOD_HION6.r11416_p3868_p4315/DAOD_HION6.23148106._000137.pool.root.1
/mnt/gpfs/work/plgrid/groups/plggatlaslhc/igrabows/2016-pPb-HION6-R21/data16_hip8TeV.00314014.physics_Main.deriv.DAOD_HION6.r11416_p3868_p4315/DAOD_HION6.23148106._000138.pool.root.1
/mnt/gpfs/work/plgrid/groups/plggatlaslhc/igrabows/2016-pPb-HION6-R21/data16_hip8TeV.00314014.physics_Main.deriv.DAOD_HION6.r11416_p3868_p4315/DAOD_HION6.23148106._000139.pool.root.1
/mnt/gpfs/work/plgrid/groups/plggatlaslhc/igrabows/2016-pPb-HION6-R21/data16_hip8TeV.00314014.physics_Main.deriv.DAOD_HION6.r11416_p3868_p4315/DAOD_HION6.23148106._000140.pool.root.1
/mnt/gpfs/work/plgrid/groups/plggatlaslhc/igrabows/2016-pPb-HION6-R21/data16_hip8TeV.00314014.physics_Main.deriv.DAOD_HION6.r11416_p3868_p4315/DAOD_HION6.23148106._000141.pool.root.1
/mnt/gpfs/work/plgrid/groups/plggatlaslhc/igrabows/2016-pPb-HION6-R21/data16_hip8TeV.00314014.physics_Main.deriv.DAOD_HION6.r11416_p3868_p4315/DAOD_HION6.23148106._000142.pool.root.1
/mnt/gpfs/work/plgrid/groups/plggatlaslhc/igrabows/2016-pPb-HION6-R21/data16_hip8TeV.00314014.physics_Main.deriv.DAOD_HION6.r11416_p3868_p4315/DAOD_HION6.23148106._000143.pool.root.1
/mnt/gpfs/work/plgrid/groups/plggatlaslhc/igrabows/2016-pPb-HION6-R21/data16_hip8TeV.00314014.physics_Main.deriv.DAOD_HION6.r11416_p3868_p4315/DAOD_HION6.23148106._000144.pool.root.1
/mnt/gpfs/work/plgrid/groups/plggatlaslhc/igrabows/2016-pPb-HION6-R21/data16_hip8TeV.00314014.physics_Main.deriv.DAOD_HION6.r11416_p3868_p4315/DAOD_HION6.23148106._000145.pool.root.1
/mnt/gpfs/work/plgrid/groups/plggatlaslhc/igrabows/2016-pPb-HION6-R21/data16_hip8TeV.00314014.physics_Main.deriv.DAOD_HION6.r11416_p3868_p4315/DAOD_HION6.23148106._000146.pool.root.1
/mnt/gpfs/work/plgrid/groups/plggatlaslhc/igrabows/2016-pPb-HION6-R21/data16_hip8TeV.00314014.physics_Main.deriv.DAOD_HION6.r11416_p3868_p4315/DAOD_HION6.23148106._000147.pool.root.1
/mnt/gpfs/work/plgrid/groups/plggatlaslhc/igrabows/2016-pPb-HION6-R21/data16_hip8TeV.00314014.physics_Main.deriv.DAOD_HION6.r11416_p3868_p4315/DAOD_HION6.23148106._000148.pool.root.1
/mnt/gpfs/work/plgrid/groups/plggatlaslhc/igrabows/2016-pPb-HION6-R21/data16_hip8TeV.00314014.physics_Main.deriv.DAOD_HION6.r11416_p3868_p4315/DAOD_HION6.23148106._000149.pool.root.1
/mnt/gpfs/work/plgrid/groups/plggatlaslhc/igrabows/2016-pPb-HION6-R21/data16_hip8TeV.00314014.physics_Main.deriv.DAOD_HION6.r11416_p3868_p4315/DAOD_HION6.23148106._000150.pool.root.1
/mnt/gpfs/work/plgrid/groups/plggatlaslhc/igrabows/2016-pPb-HION6-R21/data16_hip8TeV.00314014.physics_Main.deriv.DAOD_HION6.r11416_p3868_p4315/DAOD_HION6.23148106._000151.pool.root.1
/mnt/gpfs/work/plgrid/groups/plggatlaslhc/igrabows/2016-pPb-HION6-R21/data16_hip8TeV.00314014.physics_Main.deriv.DAOD_HION6.r11416_p3868_p4315/DAOD_HION6.23148106._000152.pool.root.1
/mnt/gpfs/work/plgrid/groups/plggatlaslhc/igrabows/2016-pPb-HION6-R21/data16_hip8TeV.00314014.physics_Main.deriv.DAOD_HION6.r11416_p3868_p4315/DAOD_HION6.23148106._000153.pool.root.1
/mnt/gpfs/work/plgrid/groups/plggatlaslhc/igrabows/2016-pPb-HION6-R21/data16_hip8TeV.00314014.physics_Main.deriv.DAOD_HION6.r11416_p3868_p4315/DAOD_HION6.23148106._000154.pool.root.1
/mnt/gpfs/work/plgrid/groups/plggatlaslhc/igrabows/2016-pPb-HION6-R21/data16_hip8TeV.00314014.physics_Main.deriv.DAOD_HION6.r11416_p3868_p4315/DAOD_HION6.23148106._000155.pool.root.1
/mnt/gpfs/work/plgrid/groups/plggatlaslhc/igrabows/2016-pPb-HION6-R21/data16_hip8TeV.00314014.physics_Main.deriv.DAOD_HION6.r11416_p3868_p4315/DAOD_HION6.23148106._000156.pool.root.1
/mnt/gpfs/work/plgrid/groups/plggatlaslhc/igrabows/2016-pPb-HION6-R21/data16_hip8TeV.00314014.physics_Main.deriv.DAOD_HION6.r11416_p3868_p4315/DAOD_HION6.23148106._000157.pool.root.1
/mnt/gpfs/work/plgrid/groups/plggatlaslhc/igrabows/2016-pPb-HION6-R21/data16_hip8TeV.00314014.physics_Main.deriv.DAOD_HION6.r11416_p3868_p4315/DAOD_HION6.23148106._000158.pool.root.1
/mnt/gpfs/work/plgrid/groups/plggatlaslhc/igrabows/2016-pPb-HION6-R21/data16_hip8TeV.00314014.physics_Main.deriv.DAOD_HION6.r11416_p3868_p4315/DAOD_HION6.23148106._000159.pool.root.1
/mnt/gpfs/work/plgrid/groups/plggatlaslhc/igrabows/2016-pPb-HION6-R21/data16_hip8TeV.00314014.physics_Main.deriv.DAOD_HION6.r11416_p3868_p4315/DAOD_HION6.23148106._000160.pool.root.1
/mnt/gpfs/work/plgrid/groups/plggatlaslhc/igrabows/2016-pPb-HION6-R21/data16_hip8TeV.00314014.physics_Main.deriv.DAOD_HION6.r11416_p3868_p4315/DAOD_HION6.23148106._000161.pool.root.1
/mnt/gpfs/work/plgrid/groups/plggatlaslhc/igrabows/2016-pPb-HION6-R21/data16_hip8TeV.00314014.physics_Main.deriv.DAOD_HION6.r11416_p3868_p4315/DAOD_HION6.23148106._000162.pool.root.1
/mnt/gpfs/work/plgrid/groups/plggatlaslhc/igrabows/2016-pPb-HION6-R21/data16_hip8TeV.00314014.physics_Main.deriv.DAOD_HION6.r11416_p3868_p4315/DAOD_HION6.23148106._000163.pool.root.1
/mnt/gpfs/work/plgrid/groups/plggatlaslhc/igrabows/2016-pPb-HION6-R21/data16_hip8TeV.00314014.physics_Main.deriv.DAOD_HION6.r11416_p3868_p4315/DAOD_HION6.23148106._000164.pool.root.1
/mnt/gpfs/work/plgrid/groups/plggatlaslhc/igrabows/2016-pPb-HION6-R21/data16_hip8TeV.00314014.physics_Main.deriv.DAOD_HION6.r11416_p3868_p4315/DAOD_HION6.23148106._000165.pool.root.1
/mnt/gpfs/work/plgrid/groups/plggatlaslhc/igrabows/2016-pPb-HION6-R21/data16_hip8TeV.00314014.physics_Main.deriv.DAOD_HION6.r11416_p3868_p4315/DAOD_HION6.23148106._000166.pool.root.1
/mnt/gpfs/work/plgrid/groups/plggatlaslhc/igrabows/2016-pPb-HION6-R21/data16_hip8TeV.00314014.physics_Main.deriv.DAOD_HION6.r11416_p3868_p4315/DAOD_HION6.23148106._000167.pool.root.1
/mnt/gpfs/work/plgrid/groups/plggatlaslhc/igrabows/2016-pPb-HION6-R21/data16_hip8TeV.00314014.physics_Main.deriv.DAOD_HION6.r11416_p3868_p4315/DAOD_HION6.23148106._000168.pool.root.1
/mnt/gpfs/work/plgrid/groups/plggatlaslhc/igrabows/2016-pPb-HION6-R21/data16_hip8TeV.00314014.physics_Main.deriv.DAOD_HION6.r11416_p3868_p4315/DAOD_HION6.23148106._000169.pool.root.1
/mnt/gpfs/work/plgrid/groups/plggatlaslhc/igrabows/2016-pPb-HION6-R21/data16_hip8TeV.00314014.physics_Main.deriv.DAOD_HION6.r11416_p3868_p4315/DAOD_HION6.23148106._000170.pool.root.1
/mnt/gpfs/work/plgrid/groups/plggatlaslhc/igrabows/2016-pPb-HION6-R21/data16_hip8TeV.00314014.physics_Main.deriv.DAOD_HION6.r11416_p3868_p4315/DAOD_HION6.23148106._000171.pool.root.1
/mnt/gpfs/work/plgrid/groups/plggatlaslhc/igrabows/2016-pPb-HION6-R21/data16_hip8TeV.00314014.physics_Main.deriv.DAOD_HION6.r11416_p3868_p4315/DAOD_HION6.23148106._000172.pool.root.1
/mnt/gpfs/work/plgrid/groups/plggatlaslhc/igrabows/2016-pPb-HION6-R21/data16_hip8TeV.00314014.physics_Main.deriv.DAOD_HION6.r11416_p3868_p4315/DAOD_HION6.23148106._000173.pool.root.1
/mnt/gpfs/work/plgrid/groups/plggatlaslhc/igrabows/2016-pPb-HION6-R21/data16_hip8TeV.00314014.physics_Main.deriv.DAOD_HION6.r11416_p3868_p4315/DAOD_HION6.23148106._000174.pool.root.1
/mnt/gpfs/work/plgrid/groups/plggatlaslhc/igrabows/2016-pPb-HION6-R21/data16_hip8TeV.00314014.physics_Main.deriv.DAOD_HION6.r11416_p3868_p4315/DAOD_HION6.23148106._000175.pool.root.1
/mnt/gpfs/work/plgrid/groups/plggatlaslhc/igrabows/2016-pPb-HION6-R21/data16_hip8TeV.00314014.physics_Main.deriv.DAOD_HION6.r11416_p3868_p4315/DAOD_HION6.23148106._000176.pool.root.1
/mnt/gpfs/work/plgrid/groups/plggatlaslhc/igrabows/2016-pPb-HION6-R21/data16_hip8TeV.00314014.physics_Main.deriv.DAOD_HION6.r11416_p3868_p4315/DAOD_HION6.23148106._000177.pool.root.1
/mnt/gpfs/work/plgrid/groups/plggatlaslhc/igrabows/2016-pPb-HION6-R21/data16_hip8TeV.00314014.physics_Main.deriv.DAOD_HION6.r11416_p3868_p4315/DAOD_HION6.23148106._000178.pool.root.1
/mnt/gpfs/work/plgrid/groups/plggatlaslhc/igrabows/2016-pPb-HION6-R21/data16_hip8TeV.00314014.physics_Main.deriv.DAOD_HION6.r11416_p3868_p4315/DAOD_HION6.23148106._000179.pool.root.1
